<svg width="20" height="20" viewBox="0 0 20 20" fill="none" xmlns="http://www.w3.org/2000/svg">
<path fill-rule="evenodd" clip-rule="evenodd" d="M5.5998 0C5.28154 0 4.97632 0.126428 4.75128 0.351472C4.52623 0.576515 4.3998 0.88174 4.3998 1.2V2.4H3.1998C2.56328 2.4 1.95284 2.65286 1.50275 3.10294C1.05266 3.55303 0.799805 4.16348 0.799805 4.8V16.8C0.799805 17.4365 1.05266 18.047 1.50275 18.4971C1.95284 18.9471 2.56328 19.2 3.1998 19.2H17.5998C18.2363 19.2 18.8468 18.9471 19.2969 18.4971C19.7469 18.047 19.9998 17.4365 19.9998 16.8V4.8C19.9998 4.16348 19.7469 3.55303 19.2969 3.10294C18.8468 2.65286 18.2363 2.4 17.5998 2.4H16.3998V1.2C16.3998 0.88174 16.2734 0.576515 16.0483 0.351472C15.8233 0.126428 15.5181 0 15.1998 0C14.8815 0 14.5763 0.126428 14.3513 0.351472C14.1262 0.576515 13.9998 0.88174 13.9998 1.2V2.4H6.7998V1.2C6.7998 0.88174 6.67338 0.576515 6.44833 0.351472C6.22329 0.126428 5.91806 0 5.5998 0ZM5.5998 6C5.28154 6 4.97632 6.12643 4.75128 6.35147C4.52623 6.57652 4.3998 6.88174 4.3998 7.2C4.3998 7.51826 4.52623 7.82348 4.75128 8.04853C4.97632 8.27357 5.28154 8.4 5.5998 8.4H15.1998C15.5181 8.4 15.8233 8.27357 16.0483 8.04853C16.2734 7.82348 16.3998 7.51826 16.3998 7.2C16.3998 6.88174 16.2734 6.57652 16.0483 6.35147C15.8233 6.12643 15.5181 6 15.1998 6H5.5998Z" fill="#3F3F46"/>
</svg>
