<svg width="18" height="19" viewBox="0 0 18 19" fill="none" xmlns="http://www.w3.org/2000/svg">
<path d="M6.83997 2.69775C6.69944 2.69955 6.5764 2.79924 6.53059 2.87214L5.37185 4.85775H2.69997C1.60928 4.85775 0.719971 5.74706 0.719971 6.83776V14.0378C0.719971 15.1284 1.60928 16.0178 2.69997 16.0178H15.3C16.3907 16.0178 17.28 15.1284 17.28 14.0378V6.83776C17.28 5.74706 16.3907 4.85775 15.3 4.85775H12.6281L11.4694 2.87214C11.4055 2.76607 11.2838 2.69745 11.16 2.69775H6.83997ZM7.04247 3.41775H10.9575L12.1106 5.39776C12.173 5.5059 12.2951 5.57693 12.42 5.57775H15.3C16.0042 5.57775 16.56 6.13349 16.56 6.83776V14.0378C16.56 14.742 16.0042 15.2978 15.3 15.2978H2.69997C1.9957 15.2978 1.43997 14.742 1.43997 14.0378V6.83776C1.43997 6.13349 1.9957 5.57775 2.69997 5.57775H5.57997C5.70484 5.57596 5.82689 5.5059 5.88935 5.39776L7.04247 3.41775ZM8.99997 6.29776C6.71779 6.29776 4.85997 8.15557 4.85997 10.4378C4.85997 12.7199 6.71779 14.5778 8.99997 14.5778C11.2822 14.5778 13.14 12.7199 13.14 10.4378C13.14 8.15557 11.2822 6.29776 8.99997 6.29776ZM14.58 6.47776C14.0872 6.47776 13.68 6.88495 13.68 7.37776C13.68 7.87056 14.0872 8.27776 14.58 8.27776C15.0728 8.27776 15.48 7.87056 15.48 7.37776C15.48 6.88495 15.0728 6.47776 14.58 6.47776ZM8.99997 7.01776C10.8931 7.01776 12.42 8.54467 12.42 10.4378C12.42 12.3308 10.8931 13.8578 8.99997 13.8578C7.10691 13.8578 5.57997 12.3308 5.57997 10.4378C5.57997 8.54467 7.10691 7.01776 8.99997 7.01776ZM14.58 7.19776C14.6836 7.19776 14.76 7.27409 14.76 7.37776C14.76 7.48142 14.6836 7.55775 14.58 7.55775C14.4763 7.55775 14.4 7.48142 14.4 7.37776C14.4 7.27409 14.4763 7.19776 14.58 7.19776ZM8.99997 7.73776C7.51308 7.73776 6.29997 8.95086 6.29997 10.4378C6.29997 11.9247 7.51308 13.1378 8.99997 13.1378C10.4869 13.1378 11.7 11.9247 11.7 10.4378C11.7 8.95086 10.4869 7.73776 8.99997 7.73776ZM8.99997 8.45775C10.0978 8.45775 10.98 9.33997 10.98 10.4378C10.98 11.5355 10.0978 12.4178 8.99997 12.4178C7.90219 12.4178 7.01997 11.5355 7.01997 10.4378C7.01997 9.33997 7.90219 8.45775 8.99997 8.45775Z" fill="#6F6F6F"/>
</svg>
