<svg width="26" height="22" viewBox="0 0 26 22" fill="none" xmlns="http://www.w3.org/2000/svg">
<path d="M1.30962 0.0177358C1.1694 0.0133464 1.03263 0.0617314 0.926384 0.153346C0.820135 0.24496 0.752139 0.373129 0.735846 0.512475C0.719554 0.65182 0.756153 0.792215 0.838402 0.905869C0.920651 1.01952 1.04256 1.09815 1.18001 1.12622L3.27394 1.58615L3.81205 4.14717C3.81243 4.14894 3.81281 4.1507 3.81321 4.15247L6.48188 16.2378C6.50942 16.3623 6.57862 16.4737 6.67806 16.5536C6.7775 16.6334 6.90121 16.677 7.02874 16.677H22.1428C22.2171 16.6781 22.2908 16.6644 22.3597 16.6367C22.4286 16.6091 22.4913 16.568 22.5442 16.5159C22.5971 16.4638 22.6391 16.4017 22.6677 16.3332C22.6964 16.2647 22.7112 16.1912 22.7112 16.1169C22.7112 16.0427 22.6964 15.9692 22.6677 15.9007C22.6391 15.8322 22.5971 15.7701 22.5442 15.718C22.4913 15.6659 22.4286 15.6248 22.3597 15.5972C22.2908 15.5695 22.2171 15.5559 22.1428 15.557H7.47876L6.96362 13.2235H22.9057C23.0332 13.2235 23.1569 13.18 23.2563 13.1001C23.3558 13.0203 23.425 12.9089 23.4525 12.7843L25.3589 4.15195C25.3769 4.07011 25.3764 3.98527 25.3574 3.90366C25.3383 3.82205 25.3011 3.74577 25.2486 3.68043C25.1962 3.61509 25.1297 3.56235 25.0541 3.52612C24.9786 3.48989 24.8958 3.47109 24.812 3.47109C18.1459 3.47126 11.4799 3.4711 4.81392 3.46792L4.2955 1.00098C4.27333 0.895371 4.22113 0.798393 4.14516 0.721751C4.0692 0.645109 3.97271 0.592064 3.86731 0.56896L1.42066 0.0319136C1.38424 0.0232779 1.34705 0.0183065 1.30964 0.0170898L1.30962 0.0177358ZM5.05615 4.58849C11.409 4.59167 17.762 4.59169 24.1147 4.59169L22.4556 12.1041H6.71587L5.05615 4.58849ZM10.6117 17.8595C9.51592 17.8595 8.61731 18.7619 8.6173 19.8583C8.61729 20.9547 9.51591 21.8571 10.6117 21.8571C11.7075 21.8571 12.6061 20.9547 12.6061 19.8583C12.6061 18.7619 11.7075 17.8595 10.6117 17.8595ZM18.644 17.8595C17.5482 17.8595 16.6496 18.7619 16.6496 19.8583C16.6496 20.9547 17.5482 21.8571 18.644 21.8571C19.7397 21.8571 20.6384 20.9547 20.6384 19.8583C20.6383 18.7619 19.7397 17.8595 18.644 17.8595ZM10.6117 18.9795C11.1003 18.9795 11.4861 19.3652 11.4861 19.8583C11.4861 20.3513 11.1003 20.7371 10.6117 20.7371C10.1231 20.7371 9.73726 20.3513 9.73726 19.8583C9.73727 19.3652 10.1231 18.9795 10.6117 18.9795ZM18.644 18.9795C19.1325 18.9795 19.5184 19.3652 19.5184 19.8583C19.5184 20.3513 19.1325 20.7371 18.644 20.7371C18.1554 20.7371 17.7695 20.3513 17.7695 19.8583C17.7695 19.3652 18.1554 18.9795 18.644 18.9795Z" fill="white"/>
</svg>
