<svg width="14" height="10" viewBox="0 0 14 10" fill="none" xmlns="http://www.w3.org/2000/svg">
<path d="M9.00008 4.99996C9.00008 5.53039 8.78937 6.0391 8.4143 6.41417C8.03922 6.78925 7.53051 6.99996 7.00008 6.99996C6.46965 6.99996 5.96094 6.78925 5.58587 6.41417C5.21079 6.0391 5.00008 5.53039 5.00008 4.99996C4.99353 4.92009 4.99353 4.83983 5.00008 4.75996C5.18492 4.91975 5.42248 5.00526 5.66675 4.99996C5.93196 4.99996 6.18632 4.8946 6.37386 4.70707C6.56139 4.51953 6.66675 4.26518 6.66675 3.99996C6.66791 3.83404 6.62693 3.67054 6.54764 3.52478C6.46835 3.37903 6.35335 3.25579 6.21341 3.16663C6.46106 3.05655 6.72908 2.99977 7.00008 2.99996C7.53051 2.99996 8.03922 3.21067 8.4143 3.58575C8.78937 3.96082 9.00008 4.46953 9.00008 4.99996ZM13.3334 4.99996C13.3334 4.99996 11.1467 9.03996 7.00008 9.03996C2.96008 9.03996 0.666748 4.99996 0.666748 4.99996C0.666748 4.99996 2.96008 0.959961 7.00008 0.959961C11.0401 0.959961 13.3334 4.99996 13.3334 4.99996ZM10.0001 4.99996C10.0001 4.40662 9.82413 3.8266 9.49449 3.33325C9.16485 2.8399 8.69631 2.45538 8.14813 2.22832C7.59995 2.00126 6.99675 1.94185 6.41481 2.0576C5.83287 2.17336 5.29832 2.45908 4.87876 2.87864C4.4592 3.2982 4.17348 3.83275 4.05773 4.41469C3.94197 4.99663 4.00138 5.59983 4.22844 6.14801C4.45551 6.69619 4.84002 7.16472 5.33337 7.49437C5.82672 7.82401 6.40674 7.99996 7.00008 7.99996C7.79519 7.9982 8.55723 7.68156 9.11946 7.11934C9.68168 6.55711 9.99832 5.79507 10.0001 4.99996ZM4.66675 7.84663C4.23992 7.50431 3.89543 7.0705 3.65871 6.57721C3.42199 6.08392 3.2991 5.54377 3.2991 4.99663C3.2991 4.44948 3.42199 3.90933 3.65871 3.41604C3.89543 2.92276 4.23992 2.48894 4.66675 2.14663C3.37102 2.80725 2.26681 3.78979 1.46008 4.99996C2.27823 6.20838 3.39109 7.18815 4.69341 7.84663H4.66675ZM12.5467 4.99996C11.7263 3.78941 10.6113 2.8075 9.30675 2.14663C9.73617 2.49378 10.0815 2.93359 10.3168 3.43313C10.5521 3.93267 10.6714 4.47898 10.6656 5.03114C10.6598 5.58331 10.5292 6.12701 10.2835 6.62152C10.0378 7.11603 9.68333 7.54853 9.24675 7.88663C10.5884 7.24177 11.7291 6.24387 12.5467 4.99996Z" fill="black"/>
</svg>
