<svg width="25" height="25" viewBox="0 0 25 25" fill="none" xmlns="http://www.w3.org/2000/svg">
<path d="M6.69086 14.7748L5.93669 17.5889L3.18021 17.6472C2.35642 16.12 1.88916 14.3727 1.88916 12.5158C1.88916 10.7203 2.32604 9.02706 3.10044 7.53613H3.10103L5.55507 7.98583L6.63009 10.424C6.40509 11.0796 6.28246 11.7835 6.28246 12.5158C6.28254 13.3107 6.42659 14.0722 6.69086 14.7748Z" fill="white"/>
<path d="M23.366 10.4932C23.4904 11.1482 23.5553 11.8246 23.5553 12.516C23.5553 13.2912 23.4738 14.0474 23.3184 14.7768C22.7911 17.2589 21.4131 19.4263 19.5042 20.9601L19.5036 20.9595L16.4126 20.8018L15.9752 18.0722C17.2418 17.3297 18.2317 16.1678 18.7531 14.7768H12.9603V10.4932H18.8376H23.366Z" fill="white"/>
<path d="M19.5037 20.9589L19.5043 20.9595C17.6478 22.451 15.2895 23.3434 12.7223 23.3434C8.5968 23.3434 5.00998 21.0386 3.18024 17.6468L6.69089 14.7744C7.60574 17.2149 9.96105 18.9521 12.7223 18.9521C13.9092 18.9521 15.0211 18.6314 15.9752 18.0716L19.5037 20.9589Z" fill="white"/>
<path d="M19.6371 4.18031L16.1276 7.05211C15.1401 6.43516 13.9729 6.07877 12.7223 6.07877C9.89855 6.07877 7.49918 7.89572 6.63016 10.4237L3.10106 7.53581H3.10046C4.90342 4.06133 8.53548 1.6875 12.7223 1.6875C15.3508 1.6875 17.7609 2.62336 19.6371 4.18031Z" fill="white"/>
</svg>
