<svg width="24" height="25" viewBox="0 0 24 25" fill="none" xmlns="http://www.w3.org/2000/svg">
<circle cx="12" cy="12.7839" r="8" fill="#707070"/>
<circle cx="12" cy="12.7839" r="4" fill="#F7F9F9"/>
</svg>
