<svg width="31" height="29" viewBox="0 0 31 29" fill="none" xmlns="http://www.w3.org/2000/svg">
<path d="M8.62801 0.50398C6.55526 0.50398 4.47815 1.35383 2.92388 3.03911C-0.183097 6.40823 -0.180221 11.7552 2.92388 15.127L14.9081 28.1481C15.1184 28.3757 15.4123 28.5039 15.7205 28.5039C16.0302 28.5039 16.324 28.3757 16.5329 28.1481C20.5301 23.8139 24.5199 19.4726 28.5171 15.1384C31.6241 11.7693 31.6241 6.4194 28.5171 3.05054C25.4102 -0.318323 20.2277 -0.318582 17.1207 3.05054L15.7264 4.56011L14.3205 3.03903C12.7663 1.35375 10.701 0.50398 8.62801 0.50398Z" fill="#FFCF34"/>
</svg>
