<svg width="292" height="381" viewBox="0 0 292 381" fill="none" xmlns="http://www.w3.org/2000/svg">
<path opacity="0.4" fill-rule="evenodd" clip-rule="evenodd" d="M48.2404 61.8009L123.324 20.505L143.724 32.1338L34.3784 100.934C15.1702 113.02 10.3318 138.708 23.8469 156.849C35.8214 172.922 58.1385 177.392 75.4698 167.187L122.395 139.559L269.68 230.14C270.088 230.391 270.509 230.606 270.939 230.785L270.378 266.574L126.514 184.066C122.222 181.605 116.73 183.056 114.246 187.308C111.763 191.56 113.228 197.002 117.52 199.464L260.88 281.683L225.073 302.121L72.4688 213.334C68.1927 210.846 62.6913 212.264 60.181 216.5C57.6708 220.737 59.1022 226.188 63.3783 228.676L207.173 312.337L195.815 318.82L173.486 331.101L21.3681 242.597C17.092 240.109 11.5906 241.527 9.0803 245.764C6.57002 250 8.00148 255.451 12.2776 257.939L155.258 341.126L120.731 360.116L46.2868 317.678L-27.4659 274.077L-27.5007 189.169L-26.1692 104.271L48.2404 61.8009ZM271.262 210.174L271.556 191.452L271.521 106.544L197.769 62.943L161.29 42.1475C161.178 42.2246 161.065 42.2995 160.949 42.3723L44.0057 115.953C33.5863 122.509 30.9617 136.444 38.2929 146.284C44.7884 155.003 56.8942 157.427 66.2954 151.892L172.021 89.6433C176.284 87.1337 181.793 88.5232 184.326 92.7469C186.86 96.9706 185.458 102.429 181.196 104.939L139.789 129.318L271.262 210.174ZM129.392 3.36609L206.916 47.5597L283.72 92.9652C287.353 95.1128 289.578 98.9872 289.579 103.169L289.615 191.59L288.229 280C288.163 284.182 285.88 288.022 282.215 290.114L204.727 334.341L126.536 377.346C122.838 379.38 118.33 379.345 114.663 377.255L37.1387 333.061L-39.6651 287.656C-43.2978 285.508 -45.5224 281.634 -45.5241 277.452L-45.5603 189.031L-44.1738 100.621C-44.1082 96.4391 -41.8247 92.5991 -38.1596 90.5072L39.3286 46.2799L117.519 3.27542C121.217 1.24136 125.725 1.27579 129.392 3.36609Z" fill="white" fill-opacity="0.19"/>
</svg>
