<svg width="24" height="17" viewBox="0 0 24 17" fill="none" xmlns="http://www.w3.org/2000/svg">
<g clip-path="url(#clip0)">
<path d="M23.4698 2.63203C23.3321 2.1233 23.0636 1.65951 22.6909 1.28684C22.3183 0.914168 21.8545 0.64562 21.3458 0.507938C19.4833 0 11.9876 0 11.9876 0C11.9876 0 4.49158 0.015375 2.62915 0.523313C2.12041 0.661003 1.65663 0.929565 1.28397 1.30225C0.911314 1.67494 0.642793 2.13875 0.505147 2.6475C-0.0581963 5.95669 -0.276728 10.9991 0.520616 14.1759C0.658276 14.6847 0.926803 15.1485 1.29946 15.5211C1.67211 15.8938 2.13589 16.1623 2.64462 16.3C4.50705 16.808 12.0029 16.808 12.0029 16.808C12.0029 16.808 19.4987 16.808 21.3611 16.3C21.8698 16.1624 22.3336 15.8938 22.7063 15.5212C23.0789 15.1485 23.3475 14.6847 23.4851 14.1759C24.0793 10.8621 24.2624 5.82281 23.4698 2.63213V2.63203Z" fill="#FF0000"/>
<path d="M9.60193 12.0056L15.8203 8.40394L9.60202 4.80225L9.60193 12.0056Z" fill="white"/>
</g>
<defs>
<clipPath id="clip0">
<rect width="24" height="16.875" fill="white"/>
</clipPath>
</defs>
</svg>
