<svg width="20" height="20" viewBox="0 0 20 20" fill="none" xmlns="http://www.w3.org/2000/svg">
<g clip-path="url(#clip0)">
<path d="M5.10552 8.62494H4.13997C4.04793 8.62494 3.97331 8.55032 3.97331 8.45828V7.36465C3.97331 7.2726 4.04793 7.19798 4.13997 7.19798H5.0866C5.48569 7.19798 5.82552 7.52452 5.81885 7.92356C5.8124 8.3114 5.49489 8.62494 5.10552 8.62494ZM12.3662 13.9921C12.4302 14.2059 12.27 14.421 12.0468 14.421H2.33334C1.04467 14.421 -1.90735e-06 13.3763 -1.90735e-06 12.0877V5.82889C-1.90735e-06 4.54022 1.04467 3.49555 2.33334 3.49555H15.8334C17.1221 3.49555 18.1667 4.54022 18.1667 5.82889V12.0877C18.1667 12.4688 18.0748 12.8289 17.912 13.147C17.8392 13.2893 17.6738 13.358 17.5206 13.3122L13.4118 12.0822C12.6511 11.8543 11.939 12.5653 12.167 13.327L12.3662 13.9921ZM6.12123 9.07215C6.06169 9.00744 6.06169 8.90915 6.12123 8.8444C6.94173 7.95227 6.28452 6.53131 5.07939 6.53131H3.63997C3.45589 6.53131 3.30664 6.68056 3.30664 6.86464C3.30664 6.96481 3.30664 11.1221 3.30664 11.0519C3.30664 11.236 3.45589 11.3852 3.63997 11.3852H5.07939C6.2824 11.3852 6.94357 9.96624 6.12123 9.07215ZM10.6728 6.86464C10.6728 6.68056 10.5236 6.53131 10.3395 6.53131C10.1554 6.53131 10.0062 6.68056 10.0062 6.86464V9.7957C10.0062 10.3045 9.59216 10.7185 9.08337 10.7185C8.57457 10.7185 8.16057 10.3045 8.16057 9.7957V6.86464C8.16057 6.68056 8.01132 6.53131 7.82724 6.53131C7.64315 6.53131 7.4939 6.68056 7.4939 6.86464V9.7957C7.4939 10.6722 8.20695 11.3852 9.08337 11.3852C9.95979 11.3852 10.6728 10.6722 10.6728 9.7957V6.86464ZM11.7285 7.03614L12.9135 9.01103C12.9474 9.06757 12.9372 8.92407 12.9372 11.0513C12.9372 11.2427 13.0986 11.3965 13.2928 11.3839C13.4699 11.3724 13.6039 11.2174 13.6039 11.0399C13.6039 8.9294 13.5938 9.06753 13.6276 9.01107L14.8126 7.03619C14.9073 6.87831 14.8561 6.67356 14.6983 6.57885C14.5403 6.48406 14.3356 6.53535 14.2409 6.69319L13.4135 8.07223C13.3487 8.18011 13.1924 8.18011 13.1276 8.07223L12.3003 6.69323C12.2056 6.53535 12.0008 6.48418 11.8429 6.57889C11.685 6.67356 11.6339 6.87831 11.7285 7.03614ZM4.13997 10.7185H5.0866C5.48569 10.7185 5.82552 10.392 5.81885 9.99295C5.81235 9.60511 5.49485 9.29161 5.10548 9.29161H4.13997C4.04793 9.29161 3.97331 9.36624 3.97331 9.45828V10.5519C3.97331 10.6439 4.04793 10.7185 4.13997 10.7185ZM19.8813 17.641L17.6463 15.7631L18.5734 14.8364C18.7509 14.6589 18.6758 14.3544 18.4334 14.2814L13.2205 12.721C12.9672 12.6444 12.7292 12.8822 12.8059 13.1356L14.3663 18.3485C14.438 18.5897 14.7431 18.6668 14.9213 18.4885L15.848 17.5614L17.7259 19.7964C17.8499 19.9437 18.0765 19.9579 18.2167 19.8177L19.9026 18.1319C20.0399 17.9946 20.0313 17.7674 19.8813 17.641Z" fill="white"/>
</g>
<defs>
<clipPath id="clip0">
<rect width="20" height="20" fill="white"/>
</clipPath>
</defs>
</svg>
