<svg width="28" height="28" viewBox="0 0 28 28" fill="none" xmlns="http://www.w3.org/2000/svg">
<path d="M25.666 14L3.49935 22.1667L8.16602 14L3.49935 5.83333L25.666 14Z" fill="#8A0E49" stroke="#8A0E49" stroke-width="2" stroke-linecap="round" stroke-linejoin="round"/>
</svg>
