<svg width="16" height="16" viewBox="0 0 16 16" fill="none" xmlns="http://www.w3.org/2000/svg">
<path d="M13.7599 3.39185H12.2562V1.13617C12.2562 0.832428 11.9999 0.576172 11.6962 0.576172H4.28803C3.98429 0.576172 3.72803 0.832428 3.72803 1.13617V3.39249L2.2399 3.39187C1.23177 3.39187 0.399902 4.22374 0.399902 5.23187V10.2082C0.399902 11.2163 1.23177 12.0482 2.2399 12.0482H2.67177L1.8399 14.7045C1.79178 14.8808 1.82365 15.0564 1.9199 15.2008C2.03178 15.3445 2.19177 15.4245 2.36803 15.4245H13.6317C13.808 15.4245 13.968 15.3445 14.0798 15.2008C14.1917 15.057 14.208 14.8808 14.1598 14.7045L13.328 12.0482H13.7598C14.768 12.0482 15.5998 11.2163 15.5998 10.2082V5.23187C15.5998 4.20812 14.768 3.39187 13.7598 3.39187L13.7599 3.39185ZM4.84809 1.69617H11.1518V3.39249L4.84809 3.39187V1.69617ZM3.11993 14.3037L4.68806 9.24737H11.2799L12.848 14.3037H3.11993ZM14.4963 10.208C14.4963 10.608 14.1763 10.928 13.7763 10.928H13.0081L12.2563 8.52801C12.1763 8.28801 11.9681 8.14427 11.7281 8.14427L4.28813 8.14364C4.04813 8.14364 3.82438 8.30364 3.76 8.52739L3.00813 10.9274L2.24 10.928C1.84 10.928 1.52 10.608 1.52 10.208V5.23169C1.52 4.83169 1.84 4.51169 2.24 4.51169H13.76C14.16 4.51169 14.48 4.83169 14.48 5.23169V10.208H14.4963Z" fill="#7A0D41"/>
<path d="M4.35158 6.38384C4.35158 7.42947 2.78345 7.42947 2.78345 6.38384C2.78345 5.33885 4.35158 5.33885 4.35158 6.38384Z" fill="#7A0D41"/>
<path d="M6.0163 11.2963H9.96813C10.2719 11.2963 10.5281 11.04 10.5281 10.7363C10.5281 10.4325 10.2719 10.1763 9.96813 10.1763H6.0163C5.71255 10.1763 5.4563 10.4325 5.4563 10.7363C5.47192 11.0563 5.71193 11.2963 6.0163 11.2963Z" fill="#7A0D41"/>
<path d="M10.5434 12.2402H5.45587C5.15213 12.2402 4.89587 12.4965 4.89587 12.8002C4.89587 13.104 5.15213 13.3602 5.45587 13.3602H10.544C10.8478 13.3602 11.104 13.104 11.104 12.8002C11.0878 12.4965 10.8478 12.2402 10.5434 12.2402H10.5434Z" fill="#7A0D41"/>
</svg>
