<svg width="34" height="34" viewBox="0 0 34 34" fill="none" xmlns="http://www.w3.org/2000/svg">
<circle cx="17" cy="17.0001" r="11.3333" fill="#8A0E49"/>
<circle cx="16.6667" cy="16.6667" r="5.66667" fill="#F7F9F9"/>
</svg>
