<svg width="20" height="20" viewBox="0 0 20 20" fill="none" xmlns="http://www.w3.org/2000/svg">
<path d="M17.5737 6.48453C17.5726 6.42643 17.5606 6.36907 17.5381 6.31547V6.31547C17.5137 6.25886 17.4785 6.20758 17.4344 6.16453V6.16266L14.9537 3.75359C14.8663 3.66863 14.7491 3.6211 14.6272 3.62109H5.37594C5.25399 3.6211 5.13685 3.66863 5.04938 3.75359L2.56906 6.16141V6.16328C2.52486 6.20637 2.4896 6.25777 2.46531 6.31453C2.44291 6.36825 2.43082 6.42571 2.42969 6.48391C2.42969 6.48703 2.42969 6.48984 2.42969 6.49266V15.9111C2.42969 16.0354 2.47907 16.1546 2.56698 16.2426C2.65489 16.3305 2.77412 16.3798 2.89844 16.3798H17.1062C17.2306 16.3798 17.3498 16.3305 17.4377 16.2426C17.5256 16.1546 17.575 16.0354 17.575 15.9111V6.49328C17.5747 6.49047 17.5737 6.48766 17.5737 6.48453ZM5.56656 4.55734H14.4353L15.9509 6.02891H4.05094L5.56656 4.55734ZM16.6375 15.4423H3.36437V6.96641H16.6375V15.4423ZM12.2906 11.6298C12.2903 11.3225 12.168 11.0278 11.9507 10.8104C11.7333 10.5931 11.4386 10.4708 11.1312 10.4705H8.37406L8.85594 10.952C8.90071 10.9953 8.93642 11.047 8.96098 11.1042C8.98555 11.1614 8.99848 11.2229 8.99902 11.2851C8.99956 11.3474 8.9877 11.4091 8.96413 11.4667C8.94057 11.5243 8.90576 11.5766 8.86175 11.6207C8.81774 11.6647 8.7654 11.6995 8.70779 11.723C8.65018 11.7466 8.58846 11.7585 8.52622 11.7579C8.46398 11.7574 8.40247 11.7445 8.34528 11.7199C8.28809 11.6953 8.23637 11.6596 8.19312 11.6148L6.91187 10.3336C6.86811 10.2896 6.8334 10.2375 6.80969 10.1802L6.8075 10.173C6.78588 10.1186 6.77464 10.0606 6.77437 10.002C6.77468 9.94359 6.78592 9.88572 6.8075 9.83141L6.80969 9.82422C6.83332 9.76675 6.86804 9.71451 6.91187 9.67047L8.19312 8.38922C8.23637 8.34445 8.28809 8.30874 8.34528 8.28417C8.40247 8.2596 8.46398 8.24667 8.52622 8.24613C8.58846 8.24559 8.65018 8.25745 8.70779 8.28102C8.7654 8.30459 8.81774 8.3394 8.86175 8.38341C8.90576 8.42742 8.94057 8.47976 8.96413 8.53737C8.9877 8.59497 8.99956 8.6567 8.99902 8.71894C8.99848 8.78118 8.98555 8.84269 8.96098 8.89988C8.93642 8.95707 8.90071 9.00879 8.85594 9.05203L8.37406 9.53391H11.1312C11.6874 9.53391 12.2207 9.75483 12.614 10.1481C13.0072 10.5413 13.2281 11.0747 13.2281 11.6308C13.2281 12.1869 13.0072 12.7203 12.614 13.1135C12.2207 13.5067 11.6874 13.7277 11.1312 13.7277H7.2425C7.11818 13.7277 6.99895 13.6783 6.91104 13.5904C6.82314 13.5025 6.77375 13.3832 6.77375 13.2589C6.77375 13.1346 6.82314 13.0154 6.91104 12.9274C6.99895 12.8395 7.11818 12.7902 7.2425 12.7902H11.1312C11.4387 12.7898 11.7334 12.6675 11.9508 12.4501C12.1682 12.2327 12.2904 11.9379 12.2906 11.6305V11.6298Z" fill="#aeaeae"/>
</svg>
