<svg width="13" height="12" viewBox="0 0 13 12" fill="none" xmlns="http://www.w3.org/2000/svg">
<path d="M8.73414 6.88477H3.43727C3.13024 6.88477 2.94742 7.22813 3.12086 7.48242L5.7693 11.3836C5.92164 11.6074 6.25094 11.6074 6.40328 11.3836L9.05172 7.48242C9.22281 7.22813 9.04117 6.88477 8.73414 6.88477Z" fill="white"/>
<path d="M8.73398 6.7676C8.62734 6.7676 8.5207 6.7676 8.41289 6.7676C8.1375 6.7676 7.86328 6.7676 7.58789 6.7676C7.21875 6.7676 6.85078 6.7676 6.48164 6.7676C6.08906 6.7676 5.69648 6.7676 5.3039 6.7676C4.9582 6.7676 4.61367 6.7676 4.26796 6.7676C4.04062 6.7676 3.81328 6.7676 3.58476 6.7676C3.53906 6.7676 3.49218 6.7676 3.44648 6.7676C3.26249 6.76877 3.09023 6.86017 3 7.02306C2.90742 7.18947 2.91796 7.39221 3.0246 7.55041C3.05273 7.5926 3.08085 7.63361 3.10898 7.67463C3.24609 7.87736 3.38437 8.0801 3.52148 8.28283C3.72656 8.584 3.93164 8.88635 4.13554 9.18752C4.35468 9.51096 4.575 9.83439 4.79414 10.1578C4.97929 10.4297 5.16328 10.7028 5.34843 10.9746C5.44804 11.1223 5.54882 11.2699 5.64843 11.4176C5.72343 11.5289 5.82187 11.618 5.95546 11.652C6.16992 11.7071 6.38086 11.6156 6.50507 11.4375C6.58828 11.318 6.66914 11.1961 6.75117 11.0754C6.92578 10.8176 7.10039 10.561 7.275 10.3031C7.49296 9.98088 7.71211 9.65978 7.93007 9.33752C8.13984 9.02932 8.34961 8.71994 8.5582 8.41174C8.70937 8.18908 8.86054 7.96525 9.01171 7.7426C9.1125 7.59494 9.23437 7.4508 9.23086 7.26213C9.22968 6.98791 9.00468 6.77228 8.73398 6.7676C8.58281 6.76525 8.58281 6.99963 8.73398 7.00197C8.93672 7.00549 9.06679 7.22228 8.96601 7.39806C8.94726 7.43088 8.92382 7.46252 8.90273 7.49416C8.78672 7.66408 8.67187 7.83517 8.55586 8.0051C8.15039 8.60275 7.74492 9.20041 7.33828 9.79807C7.01718 10.2715 6.69609 10.7449 6.375 11.2172C6.35156 11.2524 6.32812 11.2875 6.30351 11.3215C6.20859 11.4516 6.02695 11.4727 5.91093 11.3696C5.87695 11.3391 5.85351 11.3004 5.82773 11.2629C5.7832 11.1973 5.73867 11.1317 5.69414 11.066C5.33085 10.5317 4.96757 9.99611 4.60546 9.46174C4.2246 8.90041 3.84257 8.33791 3.46171 7.77658C3.3832 7.66056 3.30351 7.54572 3.22617 7.42971C3.14179 7.30314 3.15937 7.14845 3.27187 7.05939C3.33515 7.01017 3.39843 7.00197 3.47695 7.00197C3.9457 7.00197 4.41562 7.00197 4.88437 7.00197C5.63554 7.00197 6.38671 7.00197 7.13789 7.00197C7.64531 7.00197 8.15156 7.00197 8.65898 7.00197C8.68476 7.00197 8.70937 7.00197 8.73515 7.00197C8.88398 7.00197 8.88515 6.7676 8.73398 6.7676Z" fill="white"/>
<path d="M8.73414 5.11592H3.43727C3.13024 5.11592 2.94742 4.77256 3.12086 4.51826L5.7693 0.61709C5.92164 0.393262 6.25094 0.393262 6.40328 0.61709L9.05172 4.51826C9.22281 4.77256 9.04117 5.11592 8.73414 5.11592Z" fill="white"/>
<path d="M8.73477 4.99959C8.36797 4.99959 8.00117 4.99959 7.63321 4.99959C6.88907 4.99959 6.14492 4.99959 5.40196 4.99959C4.81836 4.99959 4.23477 4.99959 3.65235 4.99959C3.59258 4.99959 3.53281 4.99959 3.47305 4.99959C3.39102 4.99959 3.32071 4.98553 3.26446 4.93514C3.15664 4.8367 3.14375 4.69607 3.22813 4.57068C3.25508 4.53084 3.28203 4.491 3.30899 4.45232C3.63711 3.96951 3.96524 3.4867 4.29219 3.00272C4.69531 2.40857 5.09844 1.81561 5.50156 1.22146C5.61172 1.05857 5.72305 0.895684 5.83321 0.732793C5.86016 0.692949 5.88594 0.650762 5.92227 0.622637C6.0418 0.528887 6.21407 0.553496 6.30547 0.681231C6.3875 0.794903 6.46367 0.913262 6.54219 1.02928C6.70977 1.27654 6.87852 1.52498 7.0461 1.77225C7.46446 2.38865 7.88281 3.00506 8.30117 3.62029C8.45938 3.8535 8.61758 4.08553 8.77461 4.31873C8.81914 4.38318 8.8625 4.44881 8.90703 4.51326C8.93164 4.55076 8.96211 4.58826 8.98086 4.62928C9.05469 4.80037 8.92696 4.99607 8.73477 4.99959C8.5836 5.00193 8.5836 5.23631 8.73477 5.23396C9.01016 5.22928 9.24571 5.00076 9.23516 4.71951C9.23164 4.60936 9.18946 4.51326 9.12969 4.42537C9.02422 4.26951 8.91875 4.11482 8.81328 3.95896C8.62578 3.6824 8.43828 3.40584 8.24961 3.12928C8.0293 2.80584 7.81016 2.48123 7.58985 2.15779C7.38828 1.86014 7.18672 1.56248 6.98399 1.266C6.85039 1.06912 6.71563 0.871074 6.58203 0.674199C6.55742 0.637871 6.53282 0.600371 6.50703 0.564043C6.38047 0.382403 6.15547 0.287481 5.93867 0.356621C5.74063 0.418731 5.64688 0.592168 5.53789 0.751543C5.38789 0.971856 5.23906 1.19217 5.08906 1.41365C4.8793 1.72303 4.66953 2.0324 4.4586 2.34178C4.24063 2.66287 4.02266 2.98279 3.80586 3.30389C3.63008 3.56287 3.45313 3.82303 3.27735 4.08201C3.19297 4.20623 3.10742 4.32928 3.02422 4.45467C2.91641 4.61639 2.90821 4.82967 3.01133 4.99725C3.10625 5.15076 3.27031 5.23514 3.44961 5.23631C3.59258 5.23748 3.73672 5.23631 3.87969 5.23631C4.17617 5.23631 4.47266 5.23631 4.76914 5.23631C5.15 5.23631 5.52969 5.23631 5.91055 5.23631C6.29961 5.23631 6.68867 5.23631 7.07774 5.23631C7.40586 5.23631 7.73516 5.23631 8.06328 5.23631C8.26016 5.23631 8.45703 5.23631 8.65391 5.23631C8.68086 5.23631 8.70782 5.23631 8.73477 5.23631C8.88477 5.23396 8.88594 4.99959 8.73477 4.99959Z" fill="white"/>
</svg>
