<svg width="13" height="13" viewBox="0 0 13 13" fill="none" xmlns="http://www.w3.org/2000/svg">
<path d="M6.80545 12.7023L12.5241 6.98361C12.8287 6.67874 12.9998 6.2655 13 5.83459V1.01683C13 0.883301 12.9737 0.751076 12.9226 0.627708C12.8715 0.50434 12.7966 0.392246 12.7022 0.297824C12.6078 0.203402 12.4957 0.128503 12.3723 0.0774022C12.2489 0.0263016 12.1167 5.03045e-07 11.9832 5.03045e-07H7.16541C6.95169 -0.000167551 6.74004 0.0417728 6.54254 0.123426C6.34504 0.205078 6.16556 0.324843 6.01435 0.475878L0.297715 6.19455C0.107089 6.38523 0 6.64382 0 6.91345C0 7.18308 0.107089 7.44167 0.297715 7.63235L5.36561 12.7023C5.46007 12.797 5.57228 12.8721 5.69581 12.9234C5.81935 12.9746 5.95178 13.001 6.08553 13.001C6.21928 13.001 6.35172 12.9746 6.47525 12.9234C6.59879 12.8721 6.711 12.797 6.80545 12.7023ZM10.043 2.03367C10.224 2.03367 10.401 2.08734 10.5515 2.1879C10.702 2.28846 10.8193 2.43138 10.8885 2.5986C10.9578 2.76583 10.9759 2.94983 10.9406 3.12735C10.9053 3.30488 10.8181 3.46794 10.6902 3.59593C10.5622 3.72391 10.3991 3.81107 10.2216 3.84638C10.0441 3.88169 9.86006 3.86357 9.69283 3.79431C9.52561 3.72504 9.38269 3.60774 9.28213 3.45725C9.18157 3.30675 9.1279 3.12982 9.1279 2.94882C9.1279 2.7061 9.22432 2.47333 9.39594 2.30171C9.56756 2.13008 9.80033 2.03367 10.043 2.03367Z" fill="black"/>
</svg>
