<svg width="50" height="50" viewBox="0 0 50 50" fill="none" xmlns="http://www.w3.org/2000/svg">
<path fill-rule="evenodd" clip-rule="evenodd" d="M29.75 18C29.3358 18 29 18.3358 29 18.75C29 19.1642 29.3358 19.5 29.75 19.5H33.9393L26.25 27.1893L21.7803 22.7197C21.4874 22.4268 21.0126 22.4268 20.7197 22.7197L13.2197 30.2197C12.9268 30.5126 12.9268 30.9874 13.2197 31.2803C13.5126 31.5732 13.9874 31.5732 14.2803 31.2803L21.25 24.3107L25.7197 28.7803C26.0126 29.0732 26.4874 29.0732 26.7803 28.7803L35 20.5607V24.75C35 25.1642 35.3358 25.5 35.75 25.5C36.1642 25.5 36.5 25.1642 36.5 24.75V18.75C36.5 18.5581 36.4268 18.3661 36.2803 18.2197C36.2084 18.1478 36.1255 18.0935 36.0371 18.0569C35.9487 18.0202 35.8517 18 35.75 18H29.75Z" fill="white"/>
</svg>
