<svg width="31" height="30" viewBox="0 0 31 30" fill="none" xmlns="http://www.w3.org/2000/svg">
<path opacity="0.1" fill-rule="evenodd" clip-rule="evenodd" d="M0.5 15C0.5 6.71573 7.21573 0 15.5 0C23.7843 0 30.5 6.71573 30.5 15C30.5 23.2843 23.7843 30 15.5 30C7.21573 30 0.5 23.2843 0.5 15Z" fill="#27272A"/>
<path fill-rule="evenodd" clip-rule="evenodd" d="M15.2834 12.0752L15.3159 12.6159L14.774 12.5497C12.8014 12.2959 11.0781 11.4352 9.61491 9.98979L8.89958 9.27259L8.71533 9.80222C8.32515 10.9828 8.57443 12.2297 9.38731 13.0682C9.82084 13.5317 9.72329 13.5979 8.97545 13.322C8.71533 13.2338 8.48772 13.1675 8.46605 13.2007C8.39018 13.2779 8.6503 14.282 8.85623 14.6792C9.13802 15.2309 9.71246 15.7715 10.3411 16.0915L10.8722 16.3453L10.2435 16.3563C9.63659 16.3563 9.61491 16.3674 9.67994 16.5991C9.89671 17.3163 10.7529 18.0776 11.7067 18.4086L12.3787 18.6404L11.7934 18.9934C10.9263 19.501 9.90755 19.7879 8.88874 19.8099C8.40102 19.821 8 19.8651 8 19.8982C8 20.0086 9.32228 20.6265 10.0918 20.8692C12.4004 21.5864 15.1425 21.2775 17.2017 20.0527C18.6649 19.181 20.1281 17.4487 20.8109 15.7715C21.1794 14.8778 21.5479 13.2448 21.5479 12.4614C21.5479 11.9538 21.5804 11.8876 22.1874 11.2808C22.545 10.9277 22.881 10.5415 22.9461 10.4311C23.0544 10.2215 23.0436 10.2215 22.4908 10.4091C21.5696 10.7401 21.4395 10.696 21.8947 10.1994C22.2307 9.84635 22.6317 9.20639 22.6317 9.01881C22.6317 8.98571 22.4692 9.04088 22.2849 9.14018C22.0898 9.25052 21.6563 9.41603 21.3311 9.51533L20.7459 9.70291L20.2148 9.33879C19.9222 9.14018 19.5103 8.91951 19.2935 8.8533C18.7408 8.69883 17.8954 8.7209 17.3968 8.89744C16.042 9.39396 15.1858 10.6739 15.2834 12.0752Z" fill="#27272A"/>
</svg>
