<svg width="20" height="20" viewBox="0 0 20 20" fill="none" xmlns="http://www.w3.org/2000/svg">
<path d="M14.1667 9.16667C14.45 9.16667 14.725 9.2 15 9.24167V5.225L8.75 2.5L2.5 5.225V9.31667C2.5 13.1 5.16667 16.6417 8.75 17.5C9.20833 17.3917 9.65 17.2333 10.0833 17.0417C9.50833 16.225 9.16667 15.2333 9.16667 14.1667C9.16667 11.4083 11.4083 9.16667 14.1667 9.16667Z" fill="white"/>
<path d="M14.1667 10.8333C12.325 10.8333 10.8333 12.325 10.8333 14.1667C10.8333 16.0083 12.325 17.5 14.1667 17.5C16.0083 17.5 17.5 16.0083 17.5 14.1667C17.5 12.325 16.0083 10.8333 14.1667 10.8333ZM14.1667 11.9833C14.6833 11.9833 15.1 12.4083 15.1 12.9167C15.1 13.425 14.675 13.85 14.1667 13.85C13.6583 13.85 13.2333 13.425 13.2333 12.9167C13.2333 12.4083 13.65 11.9833 14.1667 11.9833ZM14.1667 16.4583C13.3917 16.4583 12.7167 16.075 12.3 15.4833C12.3417 14.8833 13.5583 14.5833 14.1667 14.5833C14.775 14.5833 15.9917 14.8833 16.0333 15.4833C15.6167 16.075 14.9417 16.4583 14.1667 16.4583Z" fill="white"/>
</svg>
