<svg width="20" height="20" viewBox="0 0 20 20" fill="none" xmlns="http://www.w3.org/2000/svg">
<path d="M6.15764 14.684C6.15764 14.684 6.15763 14.6839 6.15763 14.6839L6.21928 14.6737L6.15764 14.684ZM6.15764 14.684C6.19576 14.9136 6.23121 15.0889 6.34116 15.6026M6.01886 12.5003C6.01343 12.9294 6.0261 13.3575 6.05597 13.7837L0.533672 11.4608L0.538337 11.3985C0.538331 11.3985 0.538325 11.3985 0.538319 11.3985C0.26985 11.3784 0.0625 11.155 0.0625 10.8857V7.42403C0.0625 7.15073 0.27633 6.92487 0.549599 6.9104L0.549606 6.9104C2.40824 6.81182 4.35182 6.43471 6.38082 5.78064L6.38083 5.78063C8.41454 5.12472 10.3668 4.24296 12.2377 3.1353L12.2377 3.13529C12.5809 2.93192 13.0142 3.1795 13.0142 3.57732V3.58817L13.0142 3.58828V14.7323C13.0142 15.1269 12.5882 15.3745 12.2449 15.1792C10.2046 14.0154 8.24989 13.1319 6.38089 12.5291L6.38032 12.5289L6.09997 12.4414L6.01992 12.4165L6.01886 12.5003Z" fill="white" stroke="white" stroke-width="0.125"/>
</svg>
