<svg width="11" height="12" viewBox="0 0 11 12" fill="none" xmlns="http://www.w3.org/2000/svg">
<path opacity="0.5" fill-rule="evenodd" clip-rule="evenodd" d="M2.3208 2.30029C2.04466 2.30029 1.8208 2.52415 1.8208 2.80029V9.80029C1.8208 10.0764 2.04466 10.3003 2.3208 10.3003H9.3208C9.59694 10.3003 9.8208 10.0764 9.8208 9.80029V2.80029C9.8208 2.52415 9.59694 2.30029 9.3208 2.30029H2.3208ZM0.820801 2.80029C0.820801 1.97187 1.49237 1.30029 2.3208 1.30029H9.3208C10.1492 1.30029 10.8208 1.97187 10.8208 2.80029V9.80029C10.8208 10.6287 10.1492 11.3003 9.3208 11.3003H2.3208C1.49237 11.3003 0.820801 10.6287 0.820801 9.80029V2.80029Z" fill="#232F3E"/>
<path opacity="0.5" fill-rule="evenodd" clip-rule="evenodd" d="M7.8208 0.300293C8.09694 0.300293 8.3208 0.524151 8.3208 0.800293V2.80029C8.3208 3.07643 8.09694 3.30029 7.8208 3.30029C7.54466 3.30029 7.3208 3.07643 7.3208 2.80029V0.800293C7.3208 0.524151 7.54466 0.300293 7.8208 0.300293Z" fill="#232F3E"/>
<path opacity="0.5" fill-rule="evenodd" clip-rule="evenodd" d="M3.8208 0.300293C4.09694 0.300293 4.3208 0.524151 4.3208 0.800293V2.80029C4.3208 3.07643 4.09694 3.30029 3.8208 3.30029C3.54466 3.30029 3.3208 3.07643 3.3208 2.80029V0.800293C3.3208 0.524151 3.54466 0.300293 3.8208 0.300293Z" fill="#232F3E"/>
<path opacity="0.5" fill-rule="evenodd" clip-rule="evenodd" d="M0.820801 4.80029C0.820801 4.52415 1.04466 4.30029 1.3208 4.30029H10.3208C10.5969 4.30029 10.8208 4.52415 10.8208 4.80029C10.8208 5.07644 10.5969 5.30029 10.3208 5.30029H1.3208C1.04466 5.30029 0.820801 5.07644 0.820801 4.80029Z" fill="#232F3E"/>
</svg>
