<svg width="20" height="20" viewBox="0 0 20 20" fill="none" xmlns="http://www.w3.org/2000/svg">
<path d="M16.7219 8.83711C16.7661 8.83711 16.8079 8.83986 16.8562 8.84277C16.8988 8.84557 16.9415 8.83952 16.9816 8.82499C17.0218 8.81047 17.0585 8.78779 17.0894 8.75839C17.1203 8.72913 17.145 8.69386 17.1619 8.65474C17.1788 8.61562 17.1875 8.57347 17.1875 8.53086V6.77148C17.1871 6.44007 17.0553 6.12234 16.821 5.88799C16.5866 5.65365 16.2689 5.52184 15.9375 5.52148H4.0625C3.7311 5.52186 3.41337 5.65368 3.17904 5.88802C2.9447 6.12236 2.81288 6.44008 2.8125 6.77148V8.53086C2.81314 8.57368 2.8225 8.61592 2.84 8.65501C2.85749 8.69409 2.88277 8.72921 2.91428 8.7582C2.94603 8.78744 2.98336 8.80996 3.02403 8.82441C3.06469 8.83886 3.10786 8.84494 3.15094 8.8423C3.19244 8.83986 3.23394 8.83711 3.27819 8.83711C3.58186 8.83893 3.87284 8.95911 4.08929 9.17211C4.30573 9.38511 4.43057 9.67414 4.43725 9.97774C4.42949 10.2408 4.33718 10.4944 4.17399 10.701C4.01081 10.9075 3.78543 11.0559 3.53125 11.1243C3.40574 11.161 3.27412 11.1719 3.14428 11.1565C3.10167 11.1537 3.05893 11.1597 3.01877 11.1742C2.97861 11.1887 2.9419 11.2114 2.91097 11.2409C2.8799 11.2701 2.85513 11.3053 2.8382 11.3444C2.82126 11.3836 2.81252 11.4257 2.8125 11.4684V13.2277C2.81288 13.5591 2.9447 13.8769 3.17904 14.1112C3.41337 14.3455 3.7311 14.4774 4.0625 14.4777H15.9375C16.2689 14.4774 16.5866 14.3456 16.821 14.1112C17.0553 13.8769 17.1871 13.5591 17.1875 13.2277V11.4684C17.1873 11.4257 17.1784 11.3835 17.1614 11.3443C17.1443 11.3052 17.1194 11.2699 17.0883 11.2407C17.0574 11.211 17.0205 11.1881 16.9801 11.1736C16.9397 11.1592 16.8967 11.1534 16.8539 11.1566C16.7247 11.1717 16.5937 11.1608 16.4688 11.1243C16.2146 11.0559 15.9892 10.9075 15.826 10.701C15.6628 10.4944 15.5705 10.2408 15.5627 9.97774C15.5693 9.6741 15.6942 9.38501 15.9106 9.17199C16.1271 8.95897 16.4182 8.83882 16.7219 8.83711ZM14.9378 9.96611C14.9407 10.367 15.0747 10.7558 15.3194 11.0733C15.5642 11.3908 15.9062 11.6193 16.2931 11.7241C16.3811 11.7503 16.4712 11.7685 16.5625 11.7786V13.2277C16.5623 13.3934 16.4964 13.5523 16.3792 13.6695C16.2621 13.7866 16.1032 13.8525 15.9375 13.8527H6.90781V13.5056C6.90781 13.4227 6.87489 13.3432 6.81628 13.2846C6.75768 13.226 6.67819 13.1931 6.59531 13.1931C6.51243 13.1931 6.43295 13.226 6.37434 13.2846C6.31574 13.3432 6.28281 13.4227 6.28281 13.5056V13.8527H4.0625C3.89679 13.8526 3.73792 13.7867 3.62074 13.6695C3.50357 13.5523 3.43767 13.3934 3.4375 13.2277V11.7786C3.52877 11.7685 3.61896 11.7502 3.70697 11.724C4.0939 11.6193 4.43588 11.3907 4.68062 11.0732C4.92537 10.7558 5.05941 10.3669 5.06225 9.96605C5.05217 9.52648 4.88121 9.10588 4.58176 8.78394C4.28232 8.46199 3.87518 8.26105 3.4375 8.2192V6.77148C3.43767 6.60578 3.50357 6.4469 3.62074 6.32973C3.73792 6.21255 3.89679 6.14665 4.0625 6.14648H6.28281V6.49364C6.28281 6.57652 6.31574 6.65601 6.37434 6.71461C6.43295 6.77322 6.51243 6.80614 6.59531 6.80614C6.67819 6.80614 6.75768 6.77322 6.81628 6.71461C6.87489 6.65601 6.90781 6.57652 6.90781 6.49364V6.14648H15.9375C16.1032 6.14667 16.2621 6.21258 16.3792 6.32975C16.4964 6.44692 16.5623 6.60578 16.5625 6.77148V8.21924C16.1248 8.26103 15.7176 8.46194 15.4182 8.7839C15.1187 9.10585 14.9478 9.52647 14.9377 9.96605L14.9378 9.96611ZM6.90781 11.6575V12.0378C6.90781 12.1207 6.87489 12.2002 6.81628 12.2588C6.75768 12.3174 6.67819 12.3503 6.59531 12.3503C6.51243 12.3503 6.43295 12.3174 6.37434 12.2588C6.31574 12.2002 6.28281 12.1207 6.28281 12.0378V11.6575C6.28281 11.5747 6.31574 11.4952 6.37434 11.4366C6.43295 11.378 6.51243 11.345 6.59531 11.345C6.67819 11.345 6.75768 11.378 6.81628 11.4366C6.87489 11.4952 6.90781 11.5747 6.90781 11.6575ZM6.90781 9.80949V10.1897C6.90781 10.2726 6.87489 10.3521 6.81628 10.4107C6.75768 10.4693 6.67819 10.5022 6.59531 10.5022C6.51243 10.5022 6.43295 10.4693 6.37434 10.4107C6.31574 10.3521 6.28281 10.2726 6.28281 10.1897V9.80949C6.28281 9.72661 6.31574 9.64712 6.37434 9.58852C6.43295 9.52991 6.51243 9.49699 6.59531 9.49699C6.67819 9.49699 6.75768 9.52991 6.81628 9.58852C6.87489 9.64712 6.90781 9.72661 6.90781 9.80949ZM6.90781 7.96142V8.34167C6.90781 8.42455 6.87489 8.50404 6.81628 8.56264C6.75768 8.62125 6.67819 8.65417 6.59531 8.65417C6.51243 8.65417 6.43295 8.62125 6.37434 8.56264C6.31574 8.50404 6.28281 8.42455 6.28281 8.34167V7.96142C6.28281 7.87854 6.31574 7.79906 6.37434 7.74045C6.43295 7.68185 6.51243 7.64892 6.59531 7.64892C6.67819 7.64892 6.75768 7.68185 6.81628 7.74045C6.87489 7.79906 6.90781 7.87854 6.90781 7.96142ZM12.7448 8.71524L9.73403 11.7261C9.67509 11.783 9.59616 11.8145 9.51422 11.8138C9.43228 11.8131 9.3539 11.7802 9.29596 11.7223C9.23802 11.6644 9.20516 11.586 9.20445 11.5041C9.20373 11.4221 9.23523 11.3432 9.29216 11.2842L12.3028 8.27336C12.3617 8.21622 12.4407 8.18455 12.5228 8.18517C12.6049 8.18579 12.6834 8.21866 12.7414 8.27668C12.7994 8.3347 12.8323 8.41322 12.8329 8.49527C12.8336 8.57733 12.8019 8.65633 12.7448 8.71524ZM10.4147 9.39596C10.5853 9.22566 10.6916 9.00147 10.7155 8.76158C10.7393 8.5217 10.6792 8.28097 10.5454 8.08043C10.4116 7.87989 10.2125 7.73196 9.98181 7.66184C9.75117 7.59172 9.50335 7.60376 9.28059 7.69591C9.05782 7.78805 8.87391 7.9546 8.7602 8.16716C8.64649 8.37972 8.61001 8.62514 8.65698 8.86158C8.70396 9.09803 8.83148 9.31087 9.01781 9.46382C9.20414 9.61677 9.43775 9.70037 9.67881 9.70036C9.95477 9.70035 10.2194 9.59082 10.4147 9.39583V9.39596ZM9.38478 8.36614C9.44291 8.30803 9.51697 8.26847 9.59759 8.25244C9.67821 8.23642 9.76177 8.24466 9.8377 8.27612C9.91364 8.30759 9.97854 8.36086 10.0242 8.4292C10.0699 8.49755 10.0942 8.5779 10.0942 8.6601C10.0942 8.74229 10.0699 8.82264 10.0242 8.89099C9.97854 8.95933 9.91364 9.0126 9.8377 9.04407C9.76177 9.07553 9.67821 9.08377 9.59759 9.06775C9.51697 9.05172 9.44291 9.01216 9.38478 8.95405C9.34601 8.91553 9.31525 8.86972 9.29426 8.81926C9.27326 8.7688 9.26245 8.71468 9.26245 8.66003C9.26245 8.60538 9.27326 8.55127 9.29426 8.50081C9.31525 8.45035 9.34601 8.40454 9.38478 8.36602V8.36614ZM11.6223 10.6036C11.4767 10.7492 11.3776 10.9346 11.3374 11.1365C11.2973 11.3383 11.3179 11.5476 11.3966 11.7377C11.4754 11.9279 11.6088 12.0904 11.7799 12.2048C11.951 12.3191 12.1522 12.3802 12.3581 12.3802C12.5639 12.3802 12.7651 12.3191 12.9362 12.2048C13.1074 12.0904 13.2407 11.9279 13.3195 11.7377C13.3982 11.5476 13.4188 11.3383 13.3787 11.1365C13.3385 10.9346 13.2394 10.7492 13.0938 10.6036C12.8956 10.4144 12.6322 10.3088 12.3581 10.3087C12.0841 10.3087 11.8206 10.4142 11.6223 10.6034L11.6223 10.6036ZM12.6519 11.6335C12.5728 11.709 12.4675 11.7512 12.3581 11.7512C12.2486 11.7512 12.1434 11.709 12.0642 11.6335C12.0061 11.5753 11.9665 11.5013 11.9504 11.4207C11.9344 11.34 11.9426 11.2565 11.9741 11.1805C12.0055 11.1046 12.0588 11.0396 12.1271 10.994C12.1955 10.9483 12.2759 10.9239 12.3581 10.9239C12.4403 10.9239 12.5206 10.9483 12.589 10.994C12.6573 11.0396 12.7106 11.1046 12.7421 11.1805C12.7735 11.2565 12.7817 11.34 12.7657 11.4207C12.7497 11.5013 12.7101 11.5753 12.6519 11.6335Z" fill="white"/>
</svg>
