<svg width="908" height="908" viewBox="0 0 908 908" fill="none" xmlns="http://www.w3.org/2000/svg">
<rect width="908" height="908" fill="#E5E5E5"/>
<mask id="mask0" mask-type="alpha" maskUnits="userSpaceOnUse" x="0" y="0" width="908" height="908">
<rect width="908" height="908" fill="#DCCBCB"/>
</mask>
<g mask="url(#mask0)">
<path d="M311.846 817.168L168.936 895.091C160.549 899.662 153.013 905.281 146 911.406C229.321 981.633 336.878 1024 454.395 1024C571.043 1024 677.914 982.265 761 912.996C753.337 906.528 745.023 900.71 735.805 896.121L582.773 819.643C563.001 809.761 550.512 789.562 550.512 767.466V707.447C554.813 702.551 559.729 696.263 564.989 688.838C585.846 659.389 601.624 626.994 612.559 593.01C632.187 586.958 646.647 568.836 646.647 547.3V483.235C646.647 469.142 640.375 456.549 630.633 447.733V355.121C630.633 355.121 649.665 211 454.413 211C259.161 211 278.192 355.121 278.192 355.121V447.733C268.432 456.549 262.179 469.142 262.179 483.235V547.3C262.179 564.175 271.053 579.026 284.337 587.608C300.351 657.293 342.282 707.447 342.282 707.447V765.984C342.264 787.303 330.589 806.942 311.846 817.168Z" fill="#D9D9D9"/>
</g>
</svg>
