<svg width="32" height="32" viewBox="0 0 32 32" fill="none" xmlns="http://www.w3.org/2000/svg">
<circle cx="16" cy="16" r="15.5" fill="white" stroke="#EDEFF5"/>
<path fill-rule="evenodd" clip-rule="evenodd" d="M10.9154 11.312C11.2454 10.982 11.693 10.7966 12.1597 10.7966H16.2184C16.5497 10.7966 16.8184 11.0653 16.8184 11.3966C16.8184 11.728 16.5497 11.9966 16.2184 11.9966H12.1597C12.0112 11.9966 11.8689 12.0556 11.7639 12.1605C11.659 12.2655 11.6 12.4078 11.6 12.5563V20.6737C11.6 20.8221 11.659 20.9645 11.7639 21.0694C11.8689 21.1744 12.0112 21.2333 12.1597 21.2333H20.2771C20.4255 21.2333 20.5678 21.1744 20.6728 21.0694C20.7778 20.9645 20.8367 20.8221 20.8367 20.6737V16.615C20.8367 16.2836 21.1053 16.015 21.4367 16.015C21.7681 16.015 22.0367 16.2836 22.0367 16.615V20.6737C22.0367 21.1404 21.8513 21.5879 21.5213 21.9179C21.1913 22.2479 20.7438 22.4333 20.2771 22.4333H12.1597C11.693 22.4333 11.2454 22.2479 10.9154 21.9179C10.5854 21.5879 10.4 21.1404 10.4 20.6737V12.5563C10.4 12.0896 10.5854 11.642 10.9154 11.312Z" fill="#133256"/>
<path fill-rule="evenodd" clip-rule="evenodd" d="M21.4367 10.7667C21.2696 10.7667 21.1094 10.833 20.9913 10.9512L15.6005 16.3419L15.3035 17.5298L16.4914 17.2328L21.8822 11.8421C22.0003 11.7239 22.0667 11.5637 22.0667 11.3966C22.0667 11.2295 22.0003 11.0693 21.8822 10.9512C21.764 10.833 21.6038 10.7667 21.4367 10.7667ZM20.1427 10.1026C20.4859 9.75945 20.9514 9.56665 21.4367 9.56665C21.9221 9.56665 22.3875 9.75945 22.7307 10.1026C23.0739 10.4458 23.2667 10.9113 23.2667 11.3966C23.2667 11.882 23.0739 12.3474 22.7307 12.6906L17.2224 18.1989C17.1456 18.2758 17.0492 18.3303 16.9437 18.3567L14.6244 18.9365C14.42 18.9876 14.2037 18.9277 14.0547 18.7787C13.9056 18.6297 13.8457 18.4134 13.8968 18.2089L14.4766 15.8896C14.503 15.7841 14.5576 15.6878 14.6345 15.6109L20.1427 10.1026Z" fill="#133256"/>
</svg>
