<svg width="17" height="17" viewBox="0 0 17 17" fill="none" xmlns="http://www.w3.org/2000/svg">
<g clip-path="url(#clip0)">
<path fill-rule="evenodd" clip-rule="evenodd" d="M1.84876 8.77315C1.92634 8.91041 2.04046 9.10386 2.18988 9.33522C2.50112 9.81714 2.96227 10.4584 3.56171 11.0978C4.7697 12.3864 6.48003 13.6065 8.61361 13.6065C10.7472 13.6065 12.4575 12.3864 13.6655 11.0978C14.2649 10.4584 14.7261 9.81714 15.0373 9.33522C15.1868 9.10386 15.3009 8.91041 15.3785 8.77315C15.3009 8.63589 15.1868 8.44244 15.0373 8.21108C14.7261 7.72916 14.2649 7.08785 13.6655 6.44846C12.4575 5.15993 10.7472 3.93982 8.61361 3.93982C6.48003 3.93982 4.7697 5.15993 3.56171 6.44846C2.96227 7.08785 2.50112 7.72916 2.18988 8.21108C2.04046 8.44244 1.92634 8.63589 1.84876 8.77315ZM15.9469 8.77315C16.3942 8.54955 16.3941 8.54937 16.394 8.54918L16.3937 8.54869L16.393 8.54734L16.391 8.54321L16.3838 8.52924C16.3778 8.51744 16.3691 8.50072 16.3578 8.4794C16.3352 8.43676 16.3023 8.3757 16.259 8.29885C16.1726 8.14522 16.045 7.92808 15.8774 7.66856C15.5428 7.15048 15.0456 6.45845 14.395 5.76452C13.103 4.38637 11.1467 2.93982 8.61361 2.93982C6.08052 2.93982 4.12418 4.38637 2.83217 5.76452C2.18161 6.45845 1.68443 7.15048 1.34984 7.66856C1.18223 7.92808 1.0546 8.14522 0.968184 8.29885C0.924956 8.3757 0.891983 8.43676 0.869422 8.4794C0.85814 8.50072 0.849456 8.51744 0.84339 8.52924L0.836256 8.54321L0.834165 8.54734L0.833489 8.54869L0.833244 8.54918C0.833147 8.54937 0.83306 8.54955 1.28027 8.77315L0.83306 8.54955C0.762678 8.69031 0.762678 8.85599 0.83306 8.99676L1.28027 8.77315C0.83306 8.99676 0.833147 8.99693 0.833244 8.99713L0.833489 8.99762L0.834165 8.99896L0.836256 9.0031L0.84339 9.01706C0.849456 9.02886 0.85814 9.04559 0.869422 9.06691C0.891983 9.10954 0.924956 9.1706 0.968184 9.24745C1.0546 9.40108 1.18223 9.61823 1.34984 9.87775C1.68443 10.3958 2.18161 11.0879 2.83217 11.7818C4.12418 13.1599 6.08052 14.6065 8.61361 14.6065C11.1467 14.6065 13.103 13.1599 14.395 11.7818C15.0456 11.0879 15.5428 10.3958 15.8774 9.87775C16.045 9.61823 16.1726 9.40108 16.259 9.24745C16.3023 9.1706 16.3352 9.10954 16.3578 9.06691C16.3691 9.04559 16.3778 9.02886 16.3838 9.01706L16.391 9.0031L16.393 8.99896L16.3937 8.99762L16.394 8.99713C16.3941 8.99693 16.3942 8.99676 15.9469 8.77315ZM15.9469 8.77315L16.3942 8.99676C16.4645 8.85599 16.4645 8.69031 16.3942 8.54955L15.9469 8.77315Z" fill="#80B8FF"/>
<path fill-rule="evenodd" clip-rule="evenodd" d="M8.61328 7.27319C7.78485 7.27319 7.11328 7.94477 7.11328 8.77319C7.11328 9.60162 7.78485 10.2732 8.61328 10.2732C9.44171 10.2732 10.1133 9.60162 10.1133 8.77319C10.1133 7.94477 9.44171 7.27319 8.61328 7.27319ZM6.11328 8.77319C6.11328 7.39248 7.23257 6.27319 8.61328 6.27319C9.99399 6.27319 11.1133 7.39248 11.1133 8.77319C11.1133 10.1539 9.99399 11.2732 8.61328 11.2732C7.23257 11.2732 6.11328 10.1539 6.11328 8.77319Z" fill="#80B8FF"/>
</g>
<defs>
<clipPath id="clip0">
<rect x="0.613281" y="0.773193" width="16" height="16" fill="white"/>
</clipPath>
</defs>
</svg>
