<svg width="24" height="25" viewBox="0 0 24 25" fill="none" xmlns="http://www.w3.org/2000/svg">
<path d="M18.6142 12.9847H15.6469V24.5106H11.1365V12.9847H9V8.93329H11.1365V6.32659C11.1365 4.44224 11.9674 1.52148 15.6766 1.52148H19V5.44723H16.5668C16.181 5.44723 15.6172 5.66707 15.6172 6.54644V8.93329H18.9703L18.6142 12.9847Z" fill="white"/>
</svg>
