<svg width="12" height="12" viewBox="0 0 12 12" fill="none" xmlns="http://www.w3.org/2000/svg">
<path d="M11.2797 6.00037C11.273 5.82877 11.2023 5.63043 11.0847 5.50537L6.76468 0.945362C6.51244 0.646492 6.02718 0.652486 5.7436 0.921795C5.45999 1.1911 5.43674 1.66802 5.72224 1.93536L8.88723 5.28036L1.43973 5.28036C1.04207 5.28036 0.719726 5.60274 0.719726 6.00037C0.719726 6.39803 1.04207 6.72037 1.43973 6.72037L8.88723 6.72037L5.72224 10.0654C5.43679 10.3327 5.46014 10.8116 5.74385 11.081C6.02743 11.3503 6.51957 11.3514 6.76483 11.0554L11.0848 6.49537C11.2162 6.35574 11.2779 6.19285 11.2798 6.00037L11.2797 6.00037Z" fill="black"/>
</svg>
