<svg width="105" height="104" viewBox="0 0 105 104" fill="none" xmlns="http://www.w3.org/2000/svg">
<circle cx="52.5" cy="52" r="51.5" fill="#FFC300" fill-opacity="0.1" stroke="#FFC300"/>
<circle cx="52.5" cy="52" r="32.5" fill="#FFC300"/>
<g clip-path="url(#clip0)">
<path d="M39.3623 49.2734L43.8241 52.2479L47.2945 58.197L48.7818 55.2223L57.2097 59.6842L66.6292 37.8708L39.3623 49.2734Z" fill="#E7ECED"/>
<path d="M38.3708 48.7775L43.8242 52.2479L67.1251 37.375L38.3708 48.7775Z" fill="white"/>
<path d="M47.7903 61.6674L43.8241 52.2479L67.125 37.375L48.7818 55.2224L47.7903 61.6674Z" fill="#E4E7E9"/>
<path d="M57.7055 60.1801L48.7819 55.2224L67.1251 37.375L57.7055 60.1801Z" fill="white"/>
<path d="M38.3709 58.6928C38.2439 58.6928 38.1171 58.6444 38.0203 58.5475C37.8266 58.3538 37.8266 58.0405 38.0203 57.8466L41.4906 54.3762C41.6846 54.1825 41.9979 54.1825 42.1918 54.3762C42.3855 54.5702 42.3855 54.8835 42.1918 55.0772L38.7214 58.5475C38.6248 58.6444 38.4978 58.6928 38.3709 58.6928Z" fill="white"/>
<path d="M38.3709 66.625C38.2439 66.625 38.1171 66.5766 38.0203 66.4797C37.8266 66.286 37.8266 65.9727 38.0203 65.7788L39.012 64.7873C39.2057 64.5934 39.519 64.5934 39.7129 64.7873C39.9069 64.9812 39.9069 65.2945 39.7129 65.4882L38.7214 66.4797C38.6248 66.5766 38.4978 66.625 38.3709 66.625Z" fill="white"/>
<path d="M40.8497 64.1461C40.7228 64.1461 40.5958 64.0977 40.4992 64.001C40.3055 63.8071 40.3055 63.4938 40.4992 63.2999L43.4739 60.3254C43.6676 60.1315 43.9809 60.1315 44.1748 60.3254C44.3687 60.5193 44.3687 60.8326 44.1748 61.0263L41.2003 64.001C41.1035 64.0977 40.9767 64.1461 40.8497 64.1461Z" fill="white"/>
<path d="M48.2861 66.625C48.1593 66.625 48.0324 66.5766 47.9357 66.4797C47.7418 66.286 47.7418 65.9727 47.9357 65.7788L48.4314 65.2831C48.6253 65.0892 48.9386 65.0892 49.1325 65.2831C49.3262 65.4768 49.3262 65.7902 49.1325 65.9841L48.6367 66.4797C48.54 66.5766 48.4131 66.625 48.2861 66.625Z" fill="white"/>
<path d="M50.2692 64.6419C50.1422 64.6419 50.0153 64.5933 49.9186 64.4966C49.7247 64.3027 49.7247 63.9894 49.9186 63.7957L52.3975 61.3168C52.5912 61.1229 52.9045 61.1229 53.0984 61.3168C53.2924 61.5108 53.2924 61.8241 53.0984 62.0178L50.6196 64.4966C50.523 64.5933 50.396 64.6419 50.2692 64.6419Z" fill="white"/>
</g>
<defs>
<clipPath id="clip0">
<rect width="29.25" height="29.25" fill="white" transform="translate(37.875 37.375)"/>
</clipPath>
</defs>
</svg>
