<svg width="24" height="19" viewBox="0 0 24 19" fill="none" xmlns="http://www.w3.org/2000/svg">
<g opacity="0.3">
<path d="M24 2.25008C23.118 2.63191 22.168 2.88906 21.172 3.00595C22.19 2.41177 22.968 1.47278 23.338 0.352609C22.386 0.901979 21.332 1.30134 20.21 1.51564C19.314 0.582487 18.032 0 16.618 0C13.438 0 11.102 2.88906 11.82 5.88916C7.73 5.68851 4.1 3.77935 1.672 0.878601C0.382 3.03322 1.004 5.8541 3.196 7.28207C2.39 7.25674 1.632 7.0405 0.968 6.68205C0.914 8.9029 2.55 10.9815 4.918 11.4452C4.226 11.6283 3.466 11.6712 2.694 11.527C3.32 13.4323 5.142 14.8174 7.294 14.8564C5.22 16.4382 2.614 17.1454 0 16.8454C2.18 18.2071 4.766 19 7.546 19C16.69 19 21.854 11.4783 21.542 4.73198C22.506 4.05793 23.34 3.21245 24 2.25008Z" fill="#1DA1F2"/>
</g>
</svg>
