<svg width="24" height="14" viewBox="0 0 24 14" fill="none" xmlns="http://www.w3.org/2000/svg">
<path fill-rule="evenodd" clip-rule="evenodd" d="M17 0.25C16.5858 0.25 16.25 0.585786 16.25 1C16.25 1.41421 16.5858 1.75 17 1.75H21.1893L13.5 9.43934L9.03033 4.96967C8.73744 4.67678 8.26256 4.67678 7.96967 4.96967L0.46967 12.4697C0.176777 12.7626 0.176777 13.2374 0.46967 13.5303C0.762563 13.8232 1.23744 13.8232 1.53033 13.5303L8.5 6.56066L12.9697 11.0303C13.2626 11.3232 13.7374 11.3232 14.0303 11.0303L22.25 2.81066V7C22.25 7.41421 22.5858 7.75 23 7.75C23.4142 7.75 23.75 7.41421 23.75 7V1C23.75 0.808058 23.6768 0.616117 23.5303 0.46967C23.4584 0.397763 23.3755 0.343509 23.2871 0.306909C23.1987 0.270239 23.1017 0.25 23 0.25H17Z" fill="white"/>
</svg>
