<svg width="49" height="49" viewBox="0 0 49 49" fill="none" xmlns="http://www.w3.org/2000/svg">
<rect x="48.6751" y="48.8635" width="48" height="48" rx="24" transform="rotate(180 48.6751 48.8635)" fill="#E5E7EB"/>
<path d="M26.0358 19.202C26.1162 19.202 26.2066 19.2422 26.2669 19.3025L26.7691 19.8047C26.8294 19.865 26.8695 19.9554 26.8695 20.0357C26.8695 20.1161 26.8294 20.2065 26.7691 20.2667L22.8216 24.2143L26.7691 28.1618C26.8294 28.2221 26.8695 28.3125 26.8695 28.3929C26.8695 28.4833 26.8294 28.5636 26.7691 28.6239L26.2669 29.1261C26.2066 29.1864 26.1162 29.2266 26.0358 29.2266C25.9555 29.2266 25.8651 29.1864 25.8048 29.1261L21.124 24.4453C21.0637 24.385 21.0236 24.2946 21.0236 24.2143C21.0236 24.1339 21.0637 24.0435 21.124 23.9833L25.8048 19.3025C25.8651 19.2422 25.9555 19.202 26.0358 19.202Z" fill="#27272A"/>
</svg>
