<svg width="20" height="20" viewBox="0 0 20 20" fill="none" xmlns="http://www.w3.org/2000/svg">
<path fill-rule="evenodd" clip-rule="evenodd" d="M5.90465 4.1814C5.99029 4.0672 6.1247 4 6.26744 4H13.5233C13.666 4 13.8004 4.0672 13.886 4.1814L15.7 6.6C15.7589 6.6785 15.7907 6.77397 15.7907 6.87209V15.3372C15.7907 15.7782 15.6155 16.2011 15.3037 16.513C14.9918 16.8248 14.5689 17 14.1279 17H5.66279C5.22179 17 4.79885 16.8248 4.48702 16.513C4.17519 16.2011 4 15.7782 4 15.3372V6.87209C4 6.77397 4.03182 6.6785 4.0907 6.6L5.90465 4.1814ZM5.32035 6.47209H14.4703L13.2965 4.90698H6.49419L5.32035 6.47209ZM14.8837 7.27209H4.90698V15.3372C4.90698 15.5377 4.98661 15.7299 5.12835 15.8716C5.27009 16.0134 5.46234 16.093 5.66279 16.093H14.1279C14.3284 16.093 14.5206 16.0134 14.6623 15.8716C14.8041 15.7299 14.8837 15.5377 14.8837 15.3372V7.27209ZM7.47674 8.83721C7.7272 8.83721 7.93023 9.04024 7.93023 9.2907C7.93023 9.81188 8.13727 10.3117 8.5058 10.6802C8.87433 11.0488 9.37417 11.2558 9.89535 11.2558C10.4165 11.2558 10.9164 11.0488 11.2849 10.6802C11.6534 10.3117 11.8605 9.81188 11.8605 9.2907C11.8605 9.04024 12.0635 8.83721 12.314 8.83721C12.5644 8.83721 12.7674 9.04024 12.7674 9.2907C12.7674 10.0524 12.4648 10.783 11.9262 11.3216C11.3876 11.8602 10.6571 12.1628 9.89535 12.1628C9.13362 12.1628 8.40309 11.8602 7.86447 11.3216C7.32585 10.783 7.02326 10.0524 7.02326 9.2907C7.02326 9.04024 7.22629 8.83721 7.47674 8.83721Z" fill="#aeaeae"/>
</svg>
