<svg width="20" height="20" viewBox="0 0 20 20" fill="none" xmlns="http://www.w3.org/2000/svg">
<g clip-path="url(#clip0)">
<path d="M0.393443 3C0.163935 3 0 3.16393 0 3.39344V5.98361V8.77049V16.7377C0 16.9672 0.163935 17.1311 0.393443 17.1311H19.6066C19.8361 17.1311 20 16.9672 20 16.7377V8.77049V5.98361V3.39344C20 3.16393 19.8361 3 19.6066 3H0.393443ZM0.754098 3.7541H19.2131V5.59016H0.754098V3.7541ZM0.754098 6.34426H19.2131V8.37705H0.754098V6.34426ZM0.786885 9.13115H19.2459V16.3443H0.786885V9.13115ZM13.7377 11.5902C12.7869 11.5902 12.0328 12.377 12.0328 13.3279C12.0328 14.2787 12.7869 15.0328 13.7377 15.0328C14.1311 15.0328 14.4918 14.9016 14.7541 14.7049C15.0492 14.9344 15.4098 15.0328 15.7705 15.0328C16.7213 15.0328 17.5082 14.2787 17.5082 13.3279C17.5082 12.377 16.7213 11.5902 15.7705 11.5902C15.377 11.5902 15.0164 11.7213 14.7541 11.9508C14.4918 11.7213 14.1311 11.5902 13.7377 11.5902ZM13.7377 12.377C13.9344 12.377 14.1311 12.4426 14.2623 12.541C14.1311 12.7705 14.0656 13.0328 14.0656 13.3279C14.0656 13.623 14.1311 13.8852 14.2623 14.1148C14.0984 14.2131 13.9344 14.2787 13.7377 14.2787C13.2131 14.2787 12.7869 13.8525 12.7869 13.3279C12.7869 12.8033 13.2131 12.377 13.7377 12.377ZM15.8033 12.377C16.3279 12.377 16.7541 12.8033 16.7541 13.3279C16.7541 13.8525 16.3279 14.2787 15.8033 14.2787C15.6066 14.2787 15.4426 14.2131 15.2787 14.1148C15.4098 13.8852 15.4754 13.5902 15.4754 13.3279C15.4754 13.0328 15.4098 12.7705 15.2787 12.541C15.4426 12.4426 15.6066 12.377 15.8033 12.377Z" fill="white"/>
</g>
<defs>
<clipPath id="clip0">
<rect width="20" height="20" fill="white"/>
</clipPath>
</defs>
</svg>
