<svg width="20" height="16" viewBox="0 0 20 16" fill="none" xmlns="http://www.w3.org/2000/svg">
<path d="M17.4369 5.11841L19.7909 2.49867C19.895 2.39868 19.9158 2.2387 19.8742 2.09871C19.8325 1.95873 19.7075 1.85874 19.5617 1.81874L12.6874 0.238902C12.5415 0.198906 12.3749 0.2589 12.2707 0.378888L10.0001 2.91863L7.72951 0.378888C7.62535 0.2589 7.4587 0.218904 7.31288 0.238902L0.438545 1.81874C0.292725 1.85874 0.167737 1.95873 0.126075 2.09871C0.0844121 2.2387 0.105243 2.37869 0.2094 2.49867L2.56334 5.11841L0.2094 7.73814C0.105243 7.83813 0.0844121 7.99812 0.126075 8.1381C0.167737 8.27809 0.292725 8.37808 0.438545 8.41808L2.70916 8.91803V13.7775C2.70916 13.9775 2.83415 14.1375 3.04246 14.1775L9.9168 15.7573C9.93763 15.7573 9.97929 15.7773 10.021 15.7773C10.0626 15.7773 10.0835 15.7773 10.1251 15.7573L16.9995 14.1775C17.1869 14.1375 17.3328 13.9775 17.3328 13.7775V8.91803L19.5617 8.39808C19.7075 8.35808 19.8325 8.25809 19.8742 8.11811C19.9158 7.97812 19.895 7.83813 19.7909 7.71815L17.4369 5.11841ZM15.0413 5.11841L10.0001 6.25829L4.97977 5.11841L10.0001 3.95853L15.0413 5.11841ZM12.7499 1.09882L18.6868 2.45868L16.7286 4.65846L10.7917 3.29859L12.7499 1.09882ZM7.25039 1.09882L9.20854 3.29859L3.27161 4.65846L1.31346 2.45868L7.25039 1.09882ZM3.27161 5.55836L9.20854 6.91823L7.25039 9.118L1.31346 7.75814L3.27161 5.55836ZM3.56324 13.4576V9.118L7.31288 9.97792C7.35455 9.97792 7.37538 9.99792 7.41704 9.99792C7.54203 9.99792 7.66702 9.93792 7.72951 9.85793L9.5835 7.77814V14.8174L3.56324 13.4576ZM16.437 13.4576L10.4168 14.8174V7.77814L12.2707 9.83793C12.3541 9.93792 12.4791 9.97792 12.5832 9.97792C12.6249 9.97792 12.6457 9.97792 12.6874 9.95792L16.437 9.09801V13.4576ZM12.7499 9.118L10.7709 6.91823L16.7078 5.55836L18.666 7.75814L12.7499 9.118Z" fill="black"/>
</svg>
