<svg width="20" height="20" viewBox="0 0 20 20" fill="none" xmlns="http://www.w3.org/2000/svg">
<path d="M7.91833 20C7.27667 20 6.65167 19.7408 6.2 19.2892L0.710833 13.8C0.2525 13.3417 0 12.7325 0 12.085C0 11.4342 0.2525 10.825 0.710833 10.3667L9.97917 1.09833C10.6867 0.39 11.6292 0 12.6308 0H17.9167C19.0658 0 20 0.935 20 2.08333V7.36917C20 8.35583 19.6 9.3225 18.9017 10.0208L9.63333 19.2892C9.18167 19.7408 8.55667 20 7.91833 20ZM12.6308 0.833333C11.8508 0.833333 11.1192 1.13667 10.5675 1.6875L1.3 10.9558C0.999167 11.2567 0.833333 11.6567 0.833333 12.0817C0.833333 12.51 0.999167 12.91 1.3 13.21L6.79 18.7C7.385 19.295 8.45417 19.29 9.04417 18.7L18.3125 9.43083C18.855 8.88833 19.1667 8.13667 19.1667 7.36917V2.08333C19.1667 1.39417 18.6058 0.833333 17.9167 0.833333H12.6308Z" fill="white"/>
<path d="M15.4168 6.66667C14.2677 6.66667 13.3335 5.73167 13.3335 4.58333C13.3335 3.435 14.2677 2.5 15.4168 2.5C16.566 2.5 17.5002 3.435 17.5002 4.58333C17.5002 5.73167 16.566 6.66667 15.4168 6.66667ZM15.4168 3.33333C14.7277 3.33333 14.1668 3.89417 14.1668 4.58333C14.1668 5.2725 14.7277 5.83333 15.4168 5.83333C16.106 5.83333 16.6668 5.2725 16.6668 4.58333C16.6668 3.89417 16.106 3.33333 15.4168 3.33333Z" fill="white"/>
<path d="M8.75016 15C8.52016 15 8.3335 14.8133 8.3335 14.5833V7.91667C8.3335 7.68667 8.52016 7.5 8.75016 7.5C8.98016 7.5 9.16683 7.68667 9.16683 7.91667V14.5833C9.16683 14.8133 8.98016 15 8.75016 15Z" fill="white"/>
<path d="M6.25 11.667C5.56083 11.667 5 11.1062 5 10.417C5 9.72783 5.56083 9.16699 6.25 9.16699C6.93917 9.16699 7.5 9.72783 7.5 10.417C7.5 11.1062 6.93917 11.667 6.25 11.667ZM6.25 10.0003C6.02083 10.0003 5.83333 10.187 5.83333 10.417C5.83333 10.647 6.02083 10.8337 6.25 10.8337C6.47917 10.8337 6.66667 10.647 6.66667 10.417C6.66667 10.187 6.47917 10.0003 6.25 10.0003Z" fill="white"/>
<path d="M11.25 13.333C10.5608 13.333 10 12.7722 10 12.083C10 11.3938 10.5608 10.833 11.25 10.833C11.9392 10.833 12.5 11.3938 12.5 12.083C12.5 12.7722 11.9392 13.333 11.25 13.333ZM11.25 11.6663C11.0208 11.6663 10.8333 11.853 10.8333 12.083C10.8333 12.313 11.0208 12.4997 11.25 12.4997C11.4792 12.4997 11.6667 12.313 11.6667 12.083C11.6667 11.853 11.4792 11.6663 11.25 11.6663Z" fill="white"/>
</svg>
