<svg width="11" height="10" viewBox="0 0 11 10" fill="none" xmlns="http://www.w3.org/2000/svg">
<path fill-rule="evenodd" clip-rule="evenodd" d="M5.08545 0.254883L6.61323 3.58822L10.0854 3.86599L7.40026 6.36599L8.1873 9.74562L4.99286 7.98636L1.9836 9.74562L2.72434 6.18081L0.0854492 3.86599L3.69656 3.44933L5.08545 0.254883Z" fill="#FFB800"/>
</svg>
