<svg width="6" height="11" viewBox="0 0 6 11" fill="none" xmlns="http://www.w3.org/2000/svg">
<path d="M5.03572 0.202008C5.11607 0.202008 5.20647 0.242187 5.26674 0.302454L5.76897 0.804687C5.82924 0.864954 5.86942 0.955357 5.86942 1.03571C5.86942 1.11607 5.82924 1.20647 5.76897 1.26674L1.82143 5.21428L5.76897 9.16183C5.82924 9.2221 5.86942 9.3125 5.86942 9.39286C5.86942 9.48326 5.82924 9.56362 5.76897 9.62388L5.26674 10.1261C5.20647 10.1864 5.11607 10.2266 5.03571 10.2266C4.95536 10.2266 4.86496 10.1864 4.80469 10.1261L0.123884 5.44531C0.0636164 5.38504 0.023438 5.29464 0.023438 5.21428C0.023438 5.13393 0.0636164 5.04353 0.123884 4.98326L4.80469 0.302454C4.86496 0.242187 4.95536 0.202008 5.03572 0.202008Z" fill="#27272A"/>
</svg>
