<svg width="38" height="38" viewBox="0 0 38 38" fill="none" xmlns="http://www.w3.org/2000/svg">
<rect x="0.395833" y="0.395833" width="37.2083" height="37.2083" rx="18.6042" stroke="white" stroke-opacity="0.300838" stroke-width="0.791667"/>
<path fill-rule="evenodd" clip-rule="evenodd" d="M25.3337 15.0416H12.667V13.4583H25.3337V15.0416ZM25.3337 18.2082H12.667V19.7916H25.3337V18.2082ZM12.667 22.9582H25.3337V24.5416H12.667V22.9582Z" fill="white"/>
</svg>
