<svg width="20" height="20" viewBox="0 0 20 20" fill="none" xmlns="http://www.w3.org/2000/svg">
<path d="M9.77819 5.54004C11.418 5.54004 12.7517 6.87411 12.7517 8.51355C12.7517 10.1547 11.4194 11.4871 9.77819 11.4871C8.13806 11.4871 6.80469 10.154 6.80469 8.51355C6.80469 6.87376 8.13876 5.54004 9.77819 5.54004ZM9.77819 6.23723C8.51942 6.23723 7.50188 7.25477 7.50188 8.51355C7.50188 9.77058 8.52082 10.7899 9.77819 10.7899C11.0363 10.7899 12.0545 9.77162 12.0545 8.51355C12.0545 7.25477 11.037 6.23723 9.77819 6.23723Z" fill="#AEAEAE"/>
<path d="M9.77899 3C12.8243 3 15.2924 5.46805 15.2924 8.51336C15.2924 11.3053 11.7405 15.6261 9.89437 17.9446C9.83546 18.0185 9.72252 18.0185 9.6636 17.9446C7.8178 15.6261 4.26562 11.3056 4.26562 8.51336C4.26562 5.46805 6.73367 3 9.77899 3V3ZM9.77899 3.69719C7.11852 3.69719 4.96281 5.85289 4.96281 8.51336C4.96281 10.9009 8.01615 14.7518 9.77899 16.9706C11.5418 14.7515 14.5952 10.9005 14.5952 8.51336C14.5952 5.85289 12.4395 3.69719 9.77899 3.69719Z" fill="#AEAEAE"/>
</svg>
