<svg width="20" height="20" viewBox="0 0 20 20" fill="none" xmlns="http://www.w3.org/2000/svg">
<g clip-path="url(#clip0)">
<path d="M17.9091 3.11688C15.0844 3.11688 12.3896 2.04545 10.3442 0.0974026C10.2143 -0.0324675 10.0195 -0.0324675 9.88961 0.0974026C7.84415 2.04545 5.14935 3.11688 2.32468 3.11688C2.12987 3.11688 2 3.24675 2 3.44156V13.5714C2 13.8961 3.87403 18.2516 8.88312 19.6753C9.04448 19.7214 9.96526 20 10.1169 20C10.2685 20 11.1893 19.7214 11.3506 19.6753C16.289 18.324 18.2338 13.9409 18.2338 13.5714V3.44156C18.2338 3.24675 18.1039 3.11688 17.9091 3.11688ZM11.1883 19.0584L10.1169 19.3506L9.04545 19.0584C7.29221 18.5714 5.73377 17.6302 4.53247 16.3636C5.27922 13.8961 7.55195 12.2078 10.1169 12.2078C12.6818 12.2078 14.9545 13.8961 15.7013 16.3312C14.4675 17.5974 12.9416 18.5714 11.1883 19.0584ZM17.5844 13.5065C17.2273 14.3182 16.7403 15.0974 16.1883 15.7792C15.4416 13.7987 13.7857 12.3377 11.8052 11.7857C12.9416 11.1688 13.6883 10 13.6883 8.63636C13.6883 6.65584 12.0974 5.06493 10.1169 5.06493C8.13636 5.06493 6.54545 6.65584 6.54545 8.63636C6.54545 10 7.32467 11.1688 8.42857 11.7857C6.41558 12.3377 4.75974 13.7987 4.04545 15.7792C3.49351 15.0974 3.00649 14.3506 2.64935 13.5065V3.76623C5.40909 3.7013 8.03896 2.62987 10.1169 0.77922C12.1948 2.62987 14.8247 3.66883 17.5844 3.76623V13.5065ZM10.1169 11.5584C8.49351 11.5584 7.1948 10.2597 7.1948 8.63636C7.1948 7.01299 8.49351 5.71429 10.1169 5.71429C11.7403 5.71429 13.039 7.01299 13.039 8.63636C13.039 10.2597 11.7403 11.5584 10.1169 11.5584Z" fill="black"/>
</g>
<defs>
<clipPath id="clip0">
<rect width="20" height="20" fill="black"/>
</clipPath>
</defs>
</svg>
