<svg width="17" height="17" viewBox="0 0 17 17" fill="none" xmlns="http://www.w3.org/2000/svg">
<path opacity="0.7" fill-rule="evenodd" clip-rule="evenodd" d="M5.9329 3.74214C6.19325 3.48179 6.61536 3.48179 6.87571 3.74214L10.8757 7.74214C11.1361 8.00249 11.1361 8.4246 10.8757 8.68495L6.87571 12.6849C6.61536 12.9453 6.19325 12.9453 5.9329 12.6849C5.67255 12.4246 5.67255 12.0025 5.9329 11.7421L9.4615 8.21354L5.9329 4.68495C5.67255 4.4246 5.67255 4.00249 5.9329 3.74214Z" fill="#232F3E"/>
</svg>
