<svg width="8" height="8" viewBox="0 0 8 8" fill="none" xmlns="http://www.w3.org/2000/svg">
<path d="M6.75122 4.25C6.75122 5.90685 5.40807 7.25 3.75122 7.25C2.09437 7.25 0.751221 5.90685 0.751221 4.25C0.751221 2.59315 2.09437 1.25 3.75122 1.25C5.40807 1.25 6.75122 2.59315 6.75122 4.25Z" fill="#FFC300" stroke="white"/>
</svg>
