<svg width="21" height="22" viewBox="0 0 21 22" fill="none" xmlns="http://www.w3.org/2000/svg">
<g clip-path="url(#clip0)">
<path d="M17.6167 7.78577V4.26597H14.1787L10.5002 0.5L6.82167 4.26597H3.38361V7.78581L1.58057 9.63172V21.5H19.4197V9.63172L17.6167 7.78577ZM10.5002 2.25932L12.4602 4.26597H8.54014L10.5002 2.25932ZM4.61293 5.49533H16.3873V10.3707L10.5002 16.0315L4.61293 10.3707V5.49533ZM18.1904 20.2706H2.80993V10.1325L3.38361 9.54518V10.8941L10.5002 17.7369L17.6167 10.8941V9.54518L18.1904 10.1325V20.2706H18.1904Z" fill="#7A0D41"/>
<path d="M12.0306 7.33496H8.9707V8.56432H12.0306V7.33496Z" fill="#7A0D41"/>
<path d="M13.9972 9.52051H7.00342V10.7499H13.9972V9.52051Z" fill="#7A0D41"/>
</g>
<defs>
<clipPath id="clip0">
<rect width="21" height="21" fill="white" transform="translate(0 0.5)"/>
</clipPath>
</defs>
</svg>
