<svg width="20" height="21" viewBox="0 0 20 21" fill="none" xmlns="http://www.w3.org/2000/svg">
<g clip-path="url(#clip0)">
<path d="M19.1305 9.86499H8.60875C8.39326 8.8093 7.79346 7.87123 6.92563 7.23264C6.05781 6.59406 4.98378 6.30045 3.91178 6.40875C2.83977 6.51704 1.84617 7.01952 1.12359 7.81877C0.401016 8.61802 0.000946045 9.6571 0.000946045 10.7346C0.000946045 11.812 0.401016 12.8511 1.12359 13.6503C1.84617 14.4496 2.83977 14.9521 3.91178 15.0604C4.98378 15.1687 6.05781 14.8751 6.92563 14.2365C7.79346 13.5979 8.39326 12.6598 8.60875 11.6041H13.9131V13.3432C13.9131 13.5739 14.0047 13.795 14.1678 13.9581C14.3309 14.1212 14.552 14.2128 14.7827 14.2128C15.0133 14.2128 15.2345 14.1212 15.3975 13.9581C15.5606 13.795 15.6522 13.5739 15.6522 13.3432V11.6041H16.5218V13.3432C16.5218 13.5739 16.6134 13.795 16.7765 13.9581C16.9396 14.1212 17.1607 14.2128 17.3914 14.2128C17.622 14.2128 17.8432 14.1212 18.0062 13.9581C18.1693 13.795 18.2609 13.5739 18.2609 13.3432V11.6041H19.1305C19.3611 11.6041 19.5823 11.5125 19.7454 11.3494C19.9084 11.1864 20.0001 10.9652 20.0001 10.7346C20.0001 10.5039 19.9084 10.2828 19.7454 10.1197C19.5823 9.9566 19.3611 9.86499 19.1305 9.86499V9.86499ZM4.34788 13.3432C3.83193 13.3432 3.32757 13.1903 2.89857 12.9036C2.46957 12.617 2.13521 12.2095 1.93776 11.7329C1.74032 11.2562 1.68866 10.7317 1.78931 10.2256C1.88997 9.71959 2.13843 9.25476 2.50326 8.88993C2.86809 8.5251 3.33292 8.27664 3.83895 8.17598C4.34499 8.07533 4.86951 8.12699 5.34619 8.32443C5.82287 8.52188 6.23029 8.85624 6.51694 9.28524C6.80358 9.71424 6.95658 10.2186 6.95658 10.7346C6.95658 11.4264 6.68174 12.09 6.19251 12.5792C5.70329 13.0684 5.03975 13.3432 4.34788 13.3432Z" fill="#777777"/>
</g>
<defs>
<clipPath id="clip0">
<rect y="0.734375" width="20" height="20" fill="white"/>
</clipPath>
</defs>
</svg>
