<svg width="32" height="32" viewBox="0 0 32 32" fill="none" xmlns="http://www.w3.org/2000/svg">
<path d="M16 8L8 12L16 16L24 12L16 8Z" stroke="#7A0D41" stroke-width="1.5" stroke-linecap="round" stroke-linejoin="round"/>
<path d="M8 20L16 24L24 20" stroke="#7A0D41" stroke-width="1.5" stroke-linecap="round" stroke-linejoin="round"/>
<path d="M8 16L16 20L24 16" stroke="#7A0D41" stroke-width="1.5" stroke-linecap="round" stroke-linejoin="round"/>
</svg>
