<svg width="12" height="12" viewBox="0 0 12 12" fill="none" xmlns="http://www.w3.org/2000/svg">
<path fill-rule="evenodd" clip-rule="evenodd" d="M5.15732 0.647991C5.21751 0.512568 5.3518 0.425293 5.5 0.425293C5.99728 0.425293 6.47419 0.622837 6.82583 0.974468C7.17746 1.3261 7.375 1.80301 7.375 2.30029V3.92529H9.82805C10.0266 3.92338 10.2232 3.96448 10.4043 4.04578C10.5862 4.12739 10.7481 4.24757 10.8789 4.39798C11.0097 4.54839 11.1062 4.72544 11.1618 4.91686C11.2174 5.10829 11.2307 5.3095 11.2008 5.50657L10.5108 10.0065C10.5108 10.0065 10.5108 10.0065 10.5108 10.0065C10.461 10.3344 10.2945 10.6333 10.0418 10.848C9.78972 11.0623 9.46883 11.1785 9.13804 11.1753H2C1.63533 11.1753 1.28559 11.0304 1.02773 10.7726C0.769866 10.5147 0.625 10.165 0.625 9.80029V6.30029C0.625 5.93562 0.769866 5.58588 1.02773 5.32802C1.28559 5.07016 1.63533 4.92529 2 4.92529H3.2563L5.15732 0.647991ZM3.875 5.37987L5.73287 1.19965C5.94439 1.24441 6.14028 1.34959 6.2955 1.5048C6.50647 1.71578 6.625 2.00192 6.625 2.30029V4.30029C6.625 4.5074 6.79289 4.67529 7 4.67529H9.83L9.83425 4.67527C9.92484 4.67424 10.0146 4.69293 10.0972 4.73002C10.1799 4.76712 10.2535 4.82175 10.313 4.89012C10.3724 4.95849 10.4163 5.03896 10.4415 5.12597C10.4668 5.21292 10.4728 5.30432 10.4593 5.39384C10.4593 5.39378 10.4593 5.3939 10.4593 5.39384L9.76924 9.89407C9.74664 10.0431 9.67094 10.1789 9.55608 10.2766C9.44123 10.3742 9.29497 10.427 9.14424 10.4253L3.875 10.4253V5.37987ZM3.125 10.4253V5.67529H2C1.83424 5.67529 1.67527 5.74114 1.55806 5.85835C1.44085 5.97556 1.375 6.13453 1.375 6.30029V9.80029C1.375 9.96605 1.44085 10.125 1.55806 10.2422C1.67527 10.3594 1.83424 10.4253 2 10.4253H3.125Z" fill="#777777"/>
</svg>
