<svg width="50" height="50" viewBox="0 0 50 50" fill="none" xmlns="http://www.w3.org/2000/svg">
<path d="M36.728 21.799L30.328 16.199C30.2125 16.0975 30.0702 16.0315 29.9182 16.0088C29.7661 15.9861 29.6107 16.0077 29.4706 16.071C29.3305 16.1343 29.2116 16.2366 29.1282 16.3657C29.0447 16.4948 29.0002 16.6452 29 16.799V19.199H20.2C19.9878 19.199 19.7844 19.2833 19.6343 19.4333C19.4843 19.5833 19.4 19.7868 19.4 19.999V24.799C19.4 25.0112 19.4843 25.2146 19.6343 25.3647C19.7844 25.5147 19.9878 25.599 20.2 25.599H29V28.799H20.2C19.9878 28.799 19.7844 28.8833 19.6343 29.0333C19.4843 29.1833 19.4 29.3868 19.4 29.599V31.039L15.032 27.199L18.6 24.239V22.159L13.288 26.583C13.1977 26.6582 13.1251 26.7524 13.0753 26.8589C13.0255 26.9653 12.9998 27.0814 13 27.199C12.999 27.3139 13.0228 27.4277 13.0697 27.5326C13.1167 27.6375 13.1857 27.7311 13.272 27.807L19.672 33.407C19.7874 33.5082 19.9294 33.574 20.0812 33.5967C20.233 33.6194 20.3881 33.598 20.528 33.535C20.6696 33.4713 20.7897 33.3678 20.8735 33.2372C20.9573 33.1065 21.0012 32.9542 21 32.799V30.399H29.8C30.0122 30.399 30.2157 30.3147 30.3657 30.1647C30.5157 30.0146 30.6 29.8111 30.6 29.599V24.799C30.6 24.5868 30.5157 24.3833 30.3657 24.2333C30.2157 24.0833 30.0122 23.999 29.8 23.999H21V20.799H29.8C30.0122 20.799 30.2157 20.7147 30.3657 20.5647C30.5157 20.4146 30.6 20.2112 30.6 19.999V18.559L34.968 22.399L31.4 25.359V27.439L36.712 23.015C36.8023 22.9398 36.8749 22.8456 36.9247 22.7391C36.9745 22.6326 37.0002 22.5165 37 22.399C36.9999 22.2854 36.9755 22.1731 36.9286 22.0697C36.8817 21.9662 36.8133 21.8739 36.728 21.799Z" fill="white"/>
</svg>
