<svg width="16" height="16" viewBox="0 0 16 16" fill="none" xmlns="http://www.w3.org/2000/svg">
<path d="M15.2 11.2796V14.4729C15.2 14.5368 15.1908 14.5957 15.1774 14.6503C15.1136 14.9641 14.8373 15.1997 14.5107 15.1997H1.48512C1.13587 15.1997 0.84614 14.9314 0.809289 14.5907C0.800079 14.5495 0.800079 14.5133 0.800079 14.4679V11.2746C0.800079 10.8978 1.10824 10.5933 1.48016 10.5933C1.66576 10.5933 1.83862 10.6706 1.96046 10.7934C2.08301 10.9162 2.16024 11.0887 2.16024 11.2746V13.8319H13.8442V11.2746C13.8442 10.8978 14.1523 10.5933 14.5243 10.5933C14.7099 10.5933 14.8827 10.6706 15.0046 10.7934C15.1229 10.9205 15.2001 11.0929 15.2001 11.2796L15.2 11.2796Z" fill="#7A0D41"/>
<path d="M11.9225 8.08141L8.58088 11.4295C8.57663 11.4387 8.56742 11.443 8.56247 11.4479C8.43991 11.5707 8.28122 11.6481 8.12254 11.6708C8.10908 11.6708 8.09562 11.6751 8.08145 11.6751C8.05453 11.6793 8.0269 11.6793 7.99998 11.6793L7.92276 11.6751C7.9093 11.6751 7.89584 11.6708 7.88168 11.6708C7.71874 11.6481 7.56431 11.5707 7.44175 11.4479C7.4375 11.4437 7.42829 11.4344 7.42333 11.4295L4.08169 8.08141C3.92726 7.92668 3.85075 7.72226 3.85075 7.51784C3.85075 7.31343 3.92797 7.10901 4.08169 6.95427C4.38985 6.64552 4.89354 6.64552 5.20594 6.95427L7.21426 8.96645L7.21639 1.59476C7.21639 1.15896 7.57485 0.799805 8.00981 0.799805C8.22729 0.799805 8.42707 0.890656 8.5723 1.03119C8.71753 1.17669 8.80324 1.37188 8.80324 1.59476V8.96718L10.8116 6.955C11.1197 6.64625 11.6234 6.64625 11.9358 6.955C12.2305 7.26873 12.2305 7.77266 11.9223 8.08141H11.9225Z" fill="#7A0D41"/>
</svg>
