<svg width="32" height="32" viewBox="0 0 32 32" fill="none" xmlns="http://www.w3.org/2000/svg">
<path d="M15.5001 19.3683C14.8857 19.3683 14.3851 18.8676 14.3851 18.2532C14.3851 17.8987 14.0952 17.6088 13.7406 17.6088C13.3861 17.6088 13.0962 17.8987 13.0962 18.2532C13.0962 19.351 13.8429 20.2765 14.8557 20.5563V20.8864C14.8557 21.241 15.1455 21.5308 15.5001 21.5308C15.8546 21.5308 16.1445 21.241 16.1445 20.8864V20.5561C17.157 20.2708 17.9039 19.3513 17.9039 18.2532C17.9039 16.9299 16.8295 15.8494 15.5001 15.8494C14.8857 15.8494 14.3851 15.3487 14.3851 14.7343C14.3851 14.12 14.8857 13.6193 15.5001 13.6193C16.1144 13.6193 16.6151 14.12 16.6151 14.7343C16.6151 15.0889 16.905 15.3787 17.2595 15.3787C17.6141 15.3787 17.9039 15.0889 17.9039 14.7343C17.9039 13.6365 17.1573 12.711 16.1445 12.4313V12.1011C16.1445 11.7466 15.8546 11.4567 15.5001 11.4567C15.1455 11.4567 14.8557 11.7466 14.8557 12.1011V12.4315C13.8432 12.7168 13.0962 13.6362 13.0962 14.7343C13.0962 16.0577 14.1706 17.1382 15.5001 17.1382C16.1144 17.1382 16.6151 17.6389 16.6151 18.2532C16.6151 18.8676 16.1144 19.3683 15.5001 19.3683Z" fill="#7A0D41" stroke="#7A0D41" stroke-width="0.1"/>
<path d="M15.5 25.0496C20.2175 25.0496 24.05 21.2111 24.05 16.4996C24.05 11.7881 20.2175 7.94963 15.5 7.94963C10.7825 7.94963 6.95 11.7822 6.95 16.4996C6.95 21.2171 10.7825 25.0496 15.5 25.0496ZM15.5 9.23844C19.5025 9.23844 22.7612 12.4972 22.7612 16.4996C22.7612 20.5021 19.5025 23.7608 15.5 23.7608C11.4975 23.7608 8.23881 20.5021 8.23881 16.4996C8.23881 12.4972 11.4975 9.23844 15.5 9.23844Z" fill="#7A0D41" stroke="#7A0D41" stroke-width="0.1"/>
</svg>
