<svg width="24" height="24" viewBox="0 0 24 24" fill="none" xmlns="http://www.w3.org/2000/svg">
<g clip-path="url(#clip0)">
<path d="M20.9241 9.7418L23.7488 6.59812C23.8738 6.47813 23.8988 6.28615 23.8488 6.11816C23.7988 5.95018 23.6488 5.83019 23.4739 5.7822L15.2246 3.88639C15.0497 3.83839 14.8497 3.91039 14.7247 4.05437L12 7.10206L9.27522 4.05437C9.15023 3.91039 8.95025 3.86239 8.77527 3.88639L0.526058 5.7822C0.351075 5.83019 0.20109 5.95018 0.151094 6.11816C0.101099 6.28615 0.126097 6.45413 0.251085 6.59812L3.07581 9.7418L0.251085 12.8855C0.126097 13.0055 0.101099 13.1974 0.151094 13.3654C0.20109 13.5334 0.351075 13.6534 0.526058 13.7014L3.2508 14.3013V20.1327C3.2508 20.3727 3.40078 20.5647 3.65076 20.6127L11.9 22.5085C11.925 22.5085 11.975 22.5325 12.025 22.5325C12.0749 22.5325 12.0999 22.5325 12.1499 22.5085L20.3991 20.6127C20.6241 20.5647 20.7991 20.3727 20.7991 20.1327V14.3013L23.4739 13.6774C23.6488 13.6294 23.7988 13.5094 23.8488 13.3414C23.8988 13.1735 23.8738 13.0055 23.7488 12.8615L20.9241 9.7418ZM18.0494 9.7418L12 11.1097L5.97553 9.7418L12 8.34994L18.0494 9.7418ZM15.2996 4.91829L22.424 6.55012L20.0742 9.18985L12.9499 7.55802L15.2996 4.91829ZM8.70027 4.91829L11.05 7.55802L3.92573 9.18985L1.57596 6.55012L8.70027 4.91829ZM3.92573 10.2697L11.05 11.9016L8.70027 14.5413L1.57596 12.9095L3.92573 10.2697ZM4.2757 19.7488V14.5413L8.77527 15.5732C8.82526 15.5732 8.85026 15.5972 8.90025 15.5972C9.05024 15.5972 9.20022 15.5252 9.27522 15.4292L11.5 12.9335V21.3806L4.2757 19.7488ZM19.7242 19.7488L12.4999 21.3806V12.9335L14.7247 15.4052C14.8247 15.5252 14.9747 15.5732 15.0997 15.5732C15.1497 15.5732 15.1747 15.5732 15.2246 15.5492L19.7242 14.5173V19.7488ZM15.2996 14.5413L12.9249 11.9016L20.0492 10.2697L22.399 12.9095L15.2996 14.5413Z" fill="white"/>
</g>
<defs>
<clipPath id="clip0">
<rect width="24" height="24" fill="white"/>
</clipPath>
</defs>
</svg>
