<svg width="342" height="80" viewBox="0 0 342 80" fill="none" xmlns="http://www.w3.org/2000/svg">
<path fill-rule="evenodd" clip-rule="evenodd" d="M341.667 10.5292C339.875 13.2239 336.811 15 333.333 15C327.81 15 323.333 10.5228 323.333 5C323.333 3.17856 323.82 1.47087 324.671 0H13.6619C14.5127 1.47087 14.9997 3.17856 14.9997 5C14.9997 10.5228 10.5225 15 4.99967 15C3.17837 15 1.47079 14.5131 0 13.6624V66.3376C1.47079 65.4869 3.17837 65 4.99967 65C10.5225 65 14.9997 69.4771 14.9997 75C14.9997 76.8214 14.5127 78.5291 13.6619 80H324.671C323.82 78.5291 323.333 76.8214 323.333 75C323.333 69.4771 327.81 65 333.333 65C336.811 65 339.875 66.7761 341.667 69.4708V10.5292Z" fill="#7A0D41"/>
<line x1="20" y1="5.83366" x2="315" y2="5.83366" stroke="#FFA0CD" stroke-width="1.66667" stroke-linejoin="round" stroke-dasharray="1.67 1.67"/>
<line x1="20" y1="74.1667" x2="315" y2="74.1667" stroke="#FFA0CD" stroke-width="1.66667" stroke-linejoin="round" stroke-dasharray="1.67 1.67"/>
<path d="M101.93 51.333V33.753H95.9903V31.653H110.39V33.753H104.45V51.333H101.93ZM120.294 51.333L116.124 31.653H118.704L120.774 42.363C120.954 43.443 121.144 44.503 121.344 45.543C121.544 46.583 121.734 47.643 121.914 48.723H122.034C122.254 47.643 122.484 46.583 122.724 45.543C122.964 44.483 123.194 43.423 123.414 42.363L126.144 31.653H128.424L131.154 42.363C131.394 43.403 131.634 44.453 131.874 45.513C132.114 46.573 132.354 47.643 132.594 48.723H132.714C132.894 47.643 133.074 46.583 133.254 45.543C133.434 44.483 133.624 43.423 133.824 42.363L135.894 31.653H138.294L134.214 51.333H131.214L128.244 39.483C128.064 38.723 127.894 37.983 127.734 37.263C127.594 36.523 127.444 35.773 127.284 35.013H127.164C127.004 35.773 126.834 36.523 126.654 37.263C126.494 37.983 126.334 38.723 126.174 39.483L123.264 51.333H120.294ZM145.918 51.333V31.653H148.408V51.333H145.918ZM161.599 51.333L155.299 31.653H157.969L161.119 42.273C161.479 43.453 161.789 44.543 162.049 45.543C162.329 46.543 162.659 47.623 163.039 48.783H163.159C163.519 47.623 163.839 46.543 164.119 45.543C164.399 44.543 164.709 43.453 165.049 42.273L168.199 31.653H170.749L164.509 51.333H161.599ZM180.618 40.323L179.688 43.323H185.598L184.668 40.323C184.308 39.223 183.968 38.133 183.648 37.053C183.328 35.953 183.008 34.833 182.688 33.693H182.568C182.268 34.833 181.958 35.953 181.638 37.053C181.318 38.133 180.978 39.223 180.618 40.323ZM174.618 51.333L181.278 31.653H184.098L190.758 51.333H188.088L186.228 45.333H179.058L177.168 51.333H174.618ZM197.417 51.333V49.293H201.797V35.193H198.317V33.603C199.197 33.443 199.957 33.253 200.597 33.033C201.257 32.793 201.847 32.513 202.367 32.193H204.257V49.293H208.217V51.333H197.417ZM215.359 51.333V49.863C216.799 48.423 218.079 47.123 219.199 45.963C220.319 44.803 221.259 43.733 222.019 42.753C222.779 41.753 223.359 40.843 223.759 40.023C224.159 39.183 224.359 38.373 224.359 37.593C224.359 36.493 224.059 35.593 223.459 34.893C222.859 34.193 221.949 33.843 220.729 33.843C219.929 33.843 219.189 34.073 218.509 34.533C217.829 34.973 217.209 35.513 216.649 36.153L215.239 34.743C216.039 33.863 216.889 33.163 217.789 32.643C218.689 32.103 219.769 31.833 221.029 31.833C222.809 31.833 224.209 32.353 225.229 33.393C226.249 34.413 226.759 35.773 226.759 37.473C226.759 38.373 226.559 39.283 226.159 40.203C225.779 41.103 225.239 42.043 224.539 43.023C223.859 43.983 223.039 44.993 222.079 46.053C221.139 47.093 220.099 48.203 218.959 49.383C219.479 49.343 220.019 49.303 220.579 49.263C221.139 49.223 221.669 49.203 222.169 49.203H227.719V51.333H215.359ZM240.351 51.693C239.591 51.693 238.891 51.613 238.251 51.453C237.631 51.313 237.061 51.123 236.541 50.883C236.021 50.623 235.551 50.333 235.131 50.013C234.731 49.693 234.371 49.353 234.051 48.993L235.311 47.373C235.891 47.973 236.561 48.503 237.321 48.963C238.101 49.423 239.061 49.653 240.201 49.653C241.361 49.653 242.311 49.343 243.051 48.723C243.791 48.083 244.161 47.223 244.161 46.143C244.161 45.583 244.051 45.073 243.831 44.613C243.631 44.133 243.291 43.723 242.811 43.383C242.331 43.043 241.701 42.783 240.921 42.603C240.141 42.423 239.181 42.333 238.041 42.333V40.443C239.061 40.443 239.911 40.353 240.591 40.173C241.291 39.993 241.851 39.743 242.271 39.423C242.711 39.103 243.021 38.723 243.201 38.283C243.381 37.843 243.471 37.373 243.471 36.873C243.471 35.933 243.171 35.193 242.571 34.653C241.991 34.113 241.191 33.843 240.171 33.843C239.371 33.843 238.631 34.023 237.951 34.383C237.291 34.743 236.671 35.213 236.091 35.793L234.771 34.233C235.511 33.533 236.321 32.963 237.201 32.523C238.101 32.063 239.121 31.833 240.261 31.833C241.101 31.833 241.871 31.943 242.571 32.163C243.271 32.383 243.871 32.703 244.371 33.123C244.891 33.523 245.291 34.023 245.571 34.623C245.851 35.223 245.991 35.913 245.991 36.693C245.991 37.853 245.671 38.803 245.031 39.543C244.391 40.283 243.551 40.853 242.511 41.253V41.373C243.091 41.513 243.631 41.723 244.131 42.003C244.631 42.263 245.071 42.603 245.451 43.023C245.831 43.423 246.121 43.893 246.321 44.433C246.541 44.973 246.651 45.573 246.651 46.233C246.651 47.073 246.481 47.833 246.141 48.513C245.821 49.193 245.371 49.773 244.791 50.253C244.231 50.713 243.571 51.073 242.811 51.333C242.051 51.573 241.231 51.693 240.351 51.693Z" fill="white"/>
</svg>
