<svg width="14" height="15" viewBox="0 0 14 15" fill="none" xmlns="http://www.w3.org/2000/svg">
<path fill-rule="evenodd" clip-rule="evenodd" d="M13.1427 2.85324C13.3135 3.02409 13.3135 3.3011 13.1427 3.47196L7.30936 9.30529C7.1385 9.47614 6.8615 9.47614 6.69064 9.30529L4.94064 7.55529C4.76979 7.38443 4.76979 7.10743 4.94064 6.93657C5.1115 6.76572 5.3885 6.76572 5.55936 6.93657L7 8.37721L12.524 2.85324C12.6948 2.68238 12.9718 2.68238 13.1427 2.85324Z" fill="#4D94D9"/>
<path fill-rule="evenodd" clip-rule="evenodd" d="M2.91667 3.0166C2.72328 3.0166 2.53781 3.09342 2.40107 3.23017C2.26432 3.36691 2.1875 3.55238 2.1875 3.74577V11.9124C2.1875 12.1058 2.26432 12.2913 2.40107 12.428C2.53781 12.5648 2.72328 12.6416 2.91667 12.6416H11.0833C11.2767 12.6416 11.4622 12.5648 11.5989 12.428C11.7357 12.2913 11.8125 12.1058 11.8125 11.9124V7.8291C11.8125 7.58748 12.0084 7.3916 12.25 7.3916C12.4916 7.3916 12.6875 7.58748 12.6875 7.8291V11.9124C12.6875 12.3379 12.5185 12.7459 12.2177 13.0468C11.9168 13.3476 11.5088 13.5166 11.0833 13.5166H2.91667C2.49121 13.5166 2.08319 13.3476 1.78235 13.0468C1.48151 12.7459 1.3125 12.3379 1.3125 11.9124V3.74577C1.3125 3.32032 1.48151 2.91229 1.78235 2.61145C2.08319 2.31061 2.49122 2.1416 2.91667 2.1416H9.33333C9.57496 2.1416 9.77083 2.33748 9.77083 2.5791C9.77083 2.82073 9.57496 3.0166 9.33333 3.0166H2.91667Z" fill="#4D94D9"/>
</svg>
