<svg width="44" height="44" viewBox="0 0 44 44" fill="none" xmlns="http://www.w3.org/2000/svg">
<path d="M9.45833 38.2071C7.48033 38.2071 5.875 36.6018 5.875 34.6238V9.54043C5.875 7.56243 7.48033 5.95709 9.45833 5.95709H34.5417C36.5197 5.95709 38.125 7.56243 38.125 9.54043V34.6238C38.125 36.6018 36.5197 38.2071 34.5417 38.2071H9.45833ZM22 13.1238V20.2904H13.0417V23.8738H22V31.0404L30.9583 22.0821L22 13.1238Z" fill="#FFC300"/>
</svg>
