<svg width="30" height="30" viewBox="0 0 30 30" fill="none" xmlns="http://www.w3.org/2000/svg">
<path opacity="0.1" fill-rule="evenodd" clip-rule="evenodd" d="M0 15C0 6.71573 6.71573 0 15 0C23.2843 0 30 6.71573 30 15C30 23.2843 23.2843 30 15 30C6.71573 30 0 23.2843 0 15Z" fill="#8A0E49"/>
<path fill-rule="evenodd" clip-rule="evenodd" d="M14.7834 12.0752L14.8159 12.6159L14.274 12.5497C12.3014 12.2959 10.5781 11.4352 9.11491 9.98979L8.39958 9.27259L8.21533 9.80222C7.82515 10.9828 8.07443 12.2297 8.88731 13.0682C9.32084 13.5317 9.22329 13.5979 8.47545 13.322C8.21533 13.2338 7.98772 13.1675 7.96605 13.2007C7.89018 13.2779 8.1503 14.282 8.35623 14.6792C8.63802 15.2309 9.21246 15.7715 9.84108 16.0915L10.3722 16.3453L9.74353 16.3563C9.13659 16.3563 9.11491 16.3674 9.17994 16.5991C9.39671 17.3163 10.2529 18.0776 11.2067 18.4086L11.8787 18.6404L11.2934 18.9934C10.4263 19.501 9.40755 19.7879 8.38874 19.8099C7.90102 19.821 7.5 19.8651 7.5 19.8982C7.5 20.0086 8.82228 20.6265 9.5918 20.8692C11.9004 21.5864 14.6425 21.2775 16.7017 20.0527C18.1649 19.181 19.6281 17.4487 20.3109 15.7715C20.6794 14.8778 21.0479 13.2448 21.0479 12.4614C21.0479 11.9538 21.0804 11.8876 21.6874 11.2808C22.045 10.9277 22.381 10.5415 22.4461 10.4311C22.5544 10.2215 22.5436 10.2215 21.9908 10.4091C21.0696 10.7401 20.9395 10.696 21.3947 10.1994C21.7307 9.84635 22.1317 9.20639 22.1317 9.01881C22.1317 8.98571 21.9692 9.04088 21.7849 9.14018C21.5898 9.25052 21.1563 9.41603 20.8311 9.51533L20.2459 9.70291L19.7148 9.33879C19.4222 9.14018 19.0103 8.91951 18.7935 8.8533C18.2408 8.69883 17.3954 8.7209 16.8968 8.89744C15.542 9.39396 14.6858 10.6739 14.7834 12.0752Z" fill="#8A0E49"/>
</svg>
