<svg width="23" height="19" viewBox="0 0 23 19" fill="none" xmlns="http://www.w3.org/2000/svg">
<path d="M16.1756 8.34262C15.9206 8.02846 15.5199 7.88884 15.1192 7.85393C14.7913 7.85393 14.4635 7.95865 14.1721 8.20299C14.1356 8.2379 14.0628 8.27281 14.0263 8.34262L11.9864 10.5766L11.44 11.9729L11.0757 12.9503L16.9406 9.98322L17.4506 9.73887L16.1756 8.34262ZM16.1756 8.34262C15.9206 8.02846 15.5199 7.88884 15.1192 7.85393C14.7913 7.85393 14.4635 7.95865 14.1721 8.20299C14.1356 8.2379 14.0628 8.27281 14.0263 8.34262L11.9864 10.5766L11.44 11.9729L11.0757 12.9503L16.9406 9.98322L17.4506 9.73887L16.1756 8.34262ZM21.6762 0H1.27666C0.766671 0 0.365967 0.38397 0.365967 0.872659V17.6277C0.365967 18.1164 0.766671 18.5004 1.27666 18.5004H21.7854C22.259 18.4306 22.5869 18.0815 22.5869 17.6277V0.872659C22.5869 0.418876 22.1861 0 21.6762 0ZM7.94292 10.6464H7.83364C7.50579 10.6464 7.17794 10.7512 6.88652 10.9955C6.85009 11.0304 6.77724 11.0653 6.74081 11.1351L2.73377 15.5333V2.26891H20.2191V12.7408L17.4141 9.66906L16.1756 8.30771C15.9206 7.99355 15.5199 7.85393 15.1192 7.81902C14.7913 7.81902 14.4635 7.92374 14.1721 8.16809C14.1356 8.20299 14.0628 8.2379 14.0263 8.30771L11.9864 10.5417L10.2014 12.5314L9.54574 11.8333L8.89004 11.1351C8.67148 10.8559 8.3072 10.6813 7.94292 10.6464ZM16.1756 8.34262C15.9206 8.06337 15.5199 7.88883 15.0828 7.88883C14.7549 7.88883 14.4271 7.99356 14.1356 8.2379C14.0992 8.27281 14.0263 8.30771 13.9899 8.37752L11.95 10.6115L11.4036 12.0078L11.0393 12.9852L16.9041 10.0181L17.4141 9.77378L16.1756 8.34262Z" fill="#A1A1AA"/>
<path d="M8.56259 8.02682C9.46793 8.02682 10.2018 7.32356 10.2018 6.45604C10.2018 5.58852 9.46793 4.88525 8.56259 4.88525C7.65726 4.88525 6.92334 5.58852 6.92334 6.45604C6.92334 7.32356 7.65726 8.02682 8.56259 8.02682Z" fill="#A1A1AA"/>
</svg>
