<svg width="30" height="30" viewBox="0 0 30 30" fill="none" xmlns="http://www.w3.org/2000/svg">
<path opacity="0.1" fill-rule="evenodd" clip-rule="evenodd" d="M0 15C0 6.71573 6.71573 0 15 0C23.2843 0 30 6.71573 30 15C30 23.2843 23.2843 30 15 30C6.71573 30 0 23.2843 0 15Z" fill="#8A0E49"/>
<path fill-rule="evenodd" clip-rule="evenodd" d="M21.9737 10.3359C22.6729 10.5207 23.2235 11.0652 23.4104 11.7567C23.75 13.01 23.75 15.625 23.75 15.625C23.75 15.625 23.75 18.2399 23.4104 19.4933C23.2235 20.1848 22.6729 20.7293 21.9737 20.9142C20.7065 21.25 15.625 21.25 15.625 21.25C15.625 21.25 10.5435 21.25 9.27624 20.9142C8.57702 20.7293 8.02637 20.1848 7.8395 19.4933C7.5 18.2399 7.5 15.625 7.5 15.625C7.5 15.625 7.5 13.01 7.8395 11.7567C8.02637 11.0652 8.57702 10.5207 9.27624 10.3359C10.5435 10 15.625 10 15.625 10C15.625 10 20.7065 10 21.9737 10.3359ZM14.1016 13.4239V18.3152L18.1641 15.8696L14.1016 13.4239Z" fill="#8A0E49"/>
</svg>
